0
1
1
8
10
14
16
24
26
26
30
30
35
38
41
45
47
48
51
53
56
59
63
68
73
79
85
86
87
89
90
93
99
105
107
112
116
116
120
122
125
128
133
135
138
142
143
145
147
150
151
154
159
164
171
178
181
184
186
187
192
198
200
203
204
208
215
217
220
221
226
229
230
231
237
242
246
247
253
257
262
263
265
269
275
278
279
282
288
291
297
299
302
303
309
313
316
321
322
325
329
334
335
336
336
339
343
347
351
356
359
367
371
375
380
384
387
391
394
398
400
401
405
408
409
412
416
418
420
425
429
430
434
437
441
446
449
452
454
460
464
465
470
474
476
482
486
491
493
500
505
509
511
516
519
522
523
526
526
527
530
532
532
534
534
538
538
541
544
545
545
545
546
549
551
552
556
559
564
565
571
580
583
587
589
591
593
594
598
600
604
605
608
610
614
619
622
626
630
633
639
640
645
648
650
655
659
661
663
668
671
677
683
685
687
691
695
700
702
703
706
709
712
720
724
726
729
732
734
738
740
740
742
745
749
752
756
758
761
762
763
767
772
776
777
780
785
788
790
792
792
797
803
806
809
812
816
818
820
822
825
829
835
835
839
841
843
844
849
853
855
858
864
868
870
872
876
881
882
886
887
892
893
895
897
906
907
910
912
914
917
921
925
926
929
933
936
938
939
940
944
945
948
951
955
959
961
962
963
964
968
968
971
973
976
976
980
981
985
985
987
990
996
998
1000
1000
1005
1008
1012
1013
1014
1014
1016
1024
1028
1029
1031
1033
1035
1037
1039
1043
1046
1048
1050
1055
1060
1066
1068
1076
1078
1080
1084
1087
1088
1095
1098
1098
1099
1105
1108
1111
1112
1115
1119
1121
1122
1123
1126
1127
1128
1128
1129
1132
1134
1136
1138
1142
1145
1147
1150
1152
1154
1156
1161
1165
1168
1173
1176
1179
1185
1187
1191
1192
1198
1203
1210
1215
1219
1221
1226
1227
1231
1238
1243
1244
1245
1246
1249
1250
1257
1262
1267
1270
1274
1274
1278
1280
1284
1288
1290
1296
1298
1304
1305
1305
1306
1308
1309
1312
1317
1319
1320
1322
1323
1330
1331
1334
1341
1346
1350
1351
1355
1356
1360
1362
1366
1367
1369
1372
1373
1375
1381
1387
1389
1389
1391
1397
1402
1404
1407
1410
1414
1416
1419
1421
1423
1428
1431
1432
1436
1442
1447
1450
1452
1453
1456
1458
1459
1460
1464
1466
1469
1470
1473
1477
1481
1482
1485
1488
1490
1491
1493
1494
1498
1500
1502
1511
1514
1516
1519
1521
1526
1528
1529
1533
1536
1539
1541
1543
1544
1548
1550
1552
1555
1559
1560
1562
1565
1568
1575
1581
1585
1588
1592
1594
1597
1600
1604
1609
1614
1617
1620
1622
1624
1625
1626
1626
1628
1632
1639
1643
1647
1648
1651
1653
1655
1655
1659
1661
1668
1671
1673
1674
1680
1682
1684
1689
1692
1696
1697
1699
1701
1702
1704
1707
1709
1714
1715
1719
1726
1732
1734
1735
1739
1740
1744
1748
1750
1754
1756
1760
1764
1769
1770
1773
1777
1782
1785
1785
1786
1789
1791
1794
1797
1799
1803
1807
1810
1813
1816
1817
1818
1821
1827
1830
1833
1838
1844
1846
1849
1854
1859
1860
1865
1866
1870
1874
1878
1880
1882
1887
1892
1895
1899
1902
1907
1909
1912
1913
1915
1917
1919
1923
1929
1934
1935
1937
1937
1941
1944
1946
1949
1952
1955
1958
1962
1963
1969
1973
1974
1978
1980
1984
1991
1994
1997
2000
2002
2005
2009
2013
2016
2022
2026
2028
2030
2035
2039
2043
2046
2048
2050
2053
2054
2059
2063
2065
2069
2071
2072
2076
2078
2080
2088
2091
2096
2099
2102
2107
2109
2114
2117
2118
2119
2121
2122
2124
2126
2130
2136
2138
2142
2149
2154
2158
2162
2164
2166
2167
2174
2179
2184
2188
2189
2190
2193
2195
2200
2202
2204
2206
2212
2215
2219
2221
2222
2224
2226
2230
2233
2237
2238
2240
2242
2243
2247
2253
2255
2257
2258
2265
2265
2268
2270
2273
2278
2280
2281
2282
2285
2286
2287
2288
2290
2294
2295
2297
2301
2304
2304
2304
2306
2308
2310
2312
2315
2316
2317
2320
2321
2325
2327
2328
2331
2333
2337
2339
2341
2342
2343
2345
2350
2354
2363
2365
2367
2367
2370
2373
2376
2378
2381
2385
2387
2390
2391
2396
2400
2402
2407
2410
2413
2415
2416
2417
2421
2426
2427
2430
2433
2437
2439
2440
2441
2443
2446
2451
2455
2457
2462
2463
2467
2471
2474
2479
2483
2485
2487
2491
2496
2502
2506
2508
2513
2515
2522
2528
2532
2535
2539
2542
2545
2545
2549
2552
2555
2560
2564
2567
2572
2572
2573
2576
2582
2587
2592
2594
2597
2599
2604
2609
2609
2613
2616
2617
2620
2621
2623
2624
2627
2631
2634
2634
2636
2638
2641
2642
2644
2645
2648
2652
2652
2654
2655
2661
2665
2667
2672
2673
2678
2680
2685
2689
2690
2693
2693
2695
2698
2701
2705
2708
2712
2717
2722
2726
2730
2731
2735
2737
2740
2742
2744
2745
2746
2748
2749
2750
2751
2758
2760
2764
2770
2776
2779
2781
2784
2786
2790
2793
2796
2799
2799
2802
2804
2807
2809
2815
2817
2822
2824
2826
2830
2834
2836
2837
2840
2844
2846
2848
2850
2854
2858
2862
2864
2870
2874
2877
2880
2882
2883
2886
2891
2892
2897
2900
2903
2907
2910
2914
2916
2919
2925
2928
2931
2933
2934
2938
2940
2945
2948
2952
2955
2956
2960
2961
2964
2969
2974
2974
2979
2981
2985
2989
2994
2995
3001
3002
3006
3007
3011
3017
3019
3019
3019
3022
3027
3029
3034
3038
3042
3045
3047
3050
3052
3056
3057
3059
3061
3062
3065
3070
3072
3075
3075
3076
3077
3079
3081
3082
3088
3091
3095
3098
3099
3101
3103
3106
3106
3110
3112
3114
3119
3121
3126
3131
3133
3138
3138
3139
3142
3145
3146
3151
3157
3159
3161
3164
3165
3168
3173
3175
3177
3179
3181
3184
3187
3191
3196
3198
3200
3203
3208
3212
3215
3220
3222
3225
3228
3231
3235
3238
3243
3247
3251
3254
3257
3257
3261
3265
3270
3271
3278
3284
3288
3290
3292
3297
3300
3304
3306
3311
3312
3314
3318
3323
3323
3325
3328
3330
3333
3336
3337
3342
3347
3348
3352
3356
3360
3361
3366
3367
3369
3371
3371
3376
3377
3379
3384
3388
3392
3396
3401
3403
3411
3415
3419
3422
3425
3428
3433
3437
3440
3443
3450
3450
3453
3460
3463
3467
3468
3473
3478
3481
3485
3487
3490
3490
3492
3495
3500
3505
3511
3513
3515
3520
3523
3526
3528
3529
3531
3534
3539
3540
3543
3550
3552
3558
3564
3567
3571
3577
3581
3585
3589
3593
3596
3598
3603
3603
3607
3611
3616
3617
3618
3620
3626
3628
3632
3635
3636
3637
3639
3644
3644
3647
3650
3654
3657
3660
3663
3667
3671
3673
3677
3679
3682
3684
3686
3687
3690
3693
3696
3703
3705
3708
3711
3713
3717
3721
3725
3729
3733
3736
3738
3742
3747
3748
3753
3755
3758
3761
3763
3765
3769
3771
3774
3778
3778
3781
3783
3788
3788
3790
3795
3798
3801
3805
3807
3807
3809
3812
3818
3819
3820
3820
3822
3824
3824
3826
3827
3830
3832
3835
3837
3841
3843
3846
3851
3853
3860
3862
3866
3869
3870
3872
3874
3874
3876
3877
3879
3884
3889
3894
3897
3902
3906
3909
3915
3917
3919
3925
3927
3928
3928
3932
3934
3936
3938
3940
3943
3945
3946
3948
3958
3960
3964
3964
3968
3970
3972
3974
3979
3982
3985
3988
3991
3991
3996
3999
4002
4008
4013
4016
4020
4026
4027
4029
4031
4031
4035
4036
4039
4040
4041
4047
4051
4053
4056
4057
4059
4062
4063
4065
4065
4067
4070
4071
4072
4076
4078
4082
4085
4085
4089
4091
4096
4096
4099
4100
4102
4103
4106
4110
4112
4115
4117
4120
4124
4129
4132
4135
4142
4144
4148
4148
4149
4151
4154
4157
4158
4160
4168
4171
4171
4172
4178
4180
4181
4185
4188
4192
4197
4201
4204
4206
4208
4212
4215
4222
4226
4230
4234
4237
4245
4249
4251
4254
4257
4265
4265
4269
4273
4279
4281
4283
4286
4290
4290
4292
4298
4302
4305
4310
4314
4320
4321
4322
4324
4328
4330
4331
4333
4334
4336
4339
4344
4346
4348
4349
4350
4352
4353
4353
4357
4362
4365
4366
4366
4367
4368
4369
4371
4374
4378
4380
4382
4384
4388
4390
4395
4400
4401
4408
4413
4418
4422
4427
4428
4431
4437
4441
4441
4445
4446
4448
4450
4451
4456
4462
4465
4466
4469
4473
4479
4484
4491
4494
4497
4498
4500
4503
4509
4513
4513
4516
4518
4521
4524
4527
4529
4531
4534
4537
4543
4544
4549
4554
4559
4561
4564
4565
4565
4568
4569
4573
4576
4581
4584
4586
4590
4593
4593
4596
4600
4604
4605
4607
4612
4615
4622
4625
4627
4633
4636
4643
4651
4652
4654
4656
4659
4664
4665
4666
4669
4673
4682
4686
4689
4690
4693
4695
4697
4700
4701
4702
4705
4707
4710
4710
4714
4719
4721
4725
4728
4731
4732
4733
4736
4737
4743
4746
4750
4751
4753
4757
4760
4762
4764
4766
4768
4772
4776
4778
4780
4787
4791
4793
4795
4799
4803
4806
4809
4814
4817
4820
4822
4824
4827
4830
4833
4837
4840
4843
4845
4848
4848
4851
4854
4862
4864
4867
4869
4871
4873
4876
4882
4889
4894
4896
4897
4902
4906
4909
4915
4918
4925
4927
4932
4937
4937
4939
4940
4941
4942
4945
4946
4946
4948
4950
4953
4957
4960
4961
4963
4964
4965
4967
4967
4970
4975
4976
4978
4983
4987
4990
4993
4997
5001
5006
5007
5009
5012
5017
5018
5023
5023
5025
5026
5029
5033
5034
5037
5041
5044
5049
5055
5056
5057
5059
5064
5064
5068
5069
5074
5082
5086
5088
5091
5094
5097
5102
5105
5108
5112
5117
5118
5122
5123
5124
5127
5129
5132
5134
5137
5137
5138
5139
5142
5146
5148
5153
5155
5158
5162
5163
5168
5168
5171
5172
5176
5178
5179
5181
5183
5184
5186
5189
5195
5199
5203
5207
5211
5213
5214
5217
5220
5222
5224
5224
5226
5230
5236
5238
5242
5244
5247
5252
5254
5258
5265
5268
5268
5269
5273
5278
5282
5283
5286
5291
5294
5297
5299
5301
5304
5308
5310
5315
5318
5319
5319
5322
5325
5328
5332
5334
5336
5341
5342
5345
5345
5348
5349
5349
5351
5356
5357
5361
5362
5364
5367
5368
5368
5371
5376
5377
5380
5387
5388
5390
5393
5396
5401
5404
5409
5411
5413
5417
5419
5420
5424
5426
5427
5432
5435
5439
5440
5443
5451
5454
5455
5459
5462
5464
5465
5470
5472
5477
5478
5480
5482
5485
5488
5492
5492
5495
5497
5500
5503
5509
5515
5517
5521
5526
5531
5535
5537
5539
5544
5546
5551
5554
5558
5562
5562
5566
5569
5573
5576
5578
5582
5585
5590
5593
5597
5598
5600
5603
5606
5609
5612
5615
5618
5618
5622
5623
5628
5630
5634
5636
5638
5641
5643
5651
5654
5661
5665
5667
5674
5675
5681
5683
5687
5689
5692
5697
5701
5703
5711
5718
5720
5721
5726
5728
5736
5738
5741
5742
5746
5747
5753
5756
5759
5760
5766
5769
5772
5776
5777
5780
5780
5782
5784
5787
5793
5794
5797
5799
5800
5804
5806
5809
5809
5811
5815
5817
5818
5823
5828
5830
5834
5837
5840
5843
5845
5847
5849
5852
5855
5858
5860
5866
5871
5876
5876
5880
5880
5883
5886
5890
5892
5893
5899
5903
5908
5910
5915
5918
5921
5924
5928
5931
5935
5937
5944
5946
5947
5954
5955
5956
5961
5966
5969
5970
5974
5977
5979
5982
5987
5991
5994
5997
6000
6003
6007
6011
6012
6017
6020
6022
6024
6026
6033
6035
6038
6039
6043
6044
6046
6051
6054
6054
6059
6059
6061
6062
6071
6074
6075
6080
6081
6083
6086
6088
6094
6097
6100
6103
6106
6109
6112
6116
6122
6126
6129
6132
6139
6144
6150
6152
6155
6158
6161
6162
6166
6171
6172
6175
6177
6181
6182
6184
6189
6195
6200
6202
6207
6208
6210
6211
6215
6218
6222
6227
6228
6234
6238
6241
6248
6252
6254
6261
6263
6268
6272
6273
6276
6277
6281
6288
6289
6293
6296
6299
6300
6301
6304
6309
6311
6314
6318
6319
6321
6324
6325
6332
6335
6337
6342
6349
6350
6354
6357
6358
6361
6365
6367
6372
6373
6376
6381
6383
6386
6387
6388
6395
6397
6399
6402
6405
6407
6411
6412
6413
6419
6426
6431
6433
6436
6437
6441
6444
6444
6448
6452
6455
6459
6464
6468
6469
6472
6475
6480
6483
6485
6489
6489
6490
6496
6498
6503
6507
6509
6513
6516
6518
6520
6524
6525
6526
6527
6530
6535
6538
6544
6545
6548
6552
6553
6556
6559
6564
6567
6567
6570
6576
6577
6578
6579
6582
6587
6591
6596
6600
6601
6604
6605
6608
6612
6613
6621
6629
6634
6637
6640
6642
6648
6652
6655
6660
6666
6670
6677
6683
6688
6693
6695
6698
6704
6709
6711
6714
6718
6722
6726
6728
6731
6739
6742
6743
6746
6748
6751
6755
6758
6760
6761
6763
6768
6773
6778
6784
6786
6788
6792
6795
6798
6804
6805
6807
6808
6810
6811
6812
6815
6816
6821
6824
6826
6831
6835
6837
6838
6845
6848
6851
6852
6853
6856
6859
6861
6862
6862
6868
6869
6872
6878
6882
6885
6891
6895
6899
6903
6903
6909
6912
6913
6914
6917
6921
6925
6926
6930
6932
6934
6936
6939
6942
6944
6949
6953
6955
6957
6961
6962
6962
6965
6967
6969
6973
6979
6983
6986
6989
6993
6997
6999
7005
7011
7013
7016
7016
7017
7020
7025
7032
7034
7036
7038
7041
7046
7048
7052
7052
7058
7062
7065
7069
7078
7083
7088
7092
7097
7099
7103
7105
7107
7113
7119
7121
7126
7130
7133
7135
7136
7140
7143
7152
7155
7159
7163
7166
7170
7172
7178
7179
7184
7190
7193
7198
7202
7204
7208
7211
7213
7214
7218
7219
7220
7223
7229
7234
7238
7239
7244
7248
7253
7255
7258
7261
7266
7268
7272
7275
7279
7283
7286
7292
7294
7298
7303
7309
7315
7316
7317
7322
7325
7329
7332
7332
7335
7336
7337
7343
7347
7348
7351
7353
7357
7360
7363
7365
7367
7372
7374
7377
7379
7381
7384
7385
7389
7389
7392
7395
7398
7400
7403
7408
7412
7414
7416
7416
7423
7425
7426
7429
7435
7441
7443
7446
7448
7450
7454
7455
7456
7458
7458
7463
7468
7472
7474
7476
7483
7486
7491
7492
7495
7500
7502
7508
7512
7513
7517
7518
7521
7530
7531
7536
7539
7543
7546
7551
7554
7559
7561
7566
7568
7571
7571
7572
7574
7577
7577
7581
7583
7587
7589
7591
7592
7596
7599
7604
7605
7609
7611
7614
7616
7618
7620
7624
7626
7633
7637
7644
7644
7652
7655
7658
7659
7662
7668
7669
7672
7675
7678
7679
7683
7686
7691
7694
7697
7701
7702
7705
7709
7716
7718
7720
7724
7732
7735
7738
7739
7743
7747
7751
7752
7753
7755
7760
7761
7763
7767
7767
7769
7774
7778
7783
7784
7786
7786
7790
7791
7793
7797
7805
7808
7811
7812
7816
7822
7825
7827
7829
7834
7836
7838
7840
7845
7847
7850
7853
7854
7858
7858
7859
7864
7866
7867
7871
7873
7877
7878
7884
7889
7892
7893
7897
7901
7905
7906
7907
7911
7914
7917
7918
7920
7924
7925
7928
7929
7933
7937
7940
7943
7946
7948
7948
7950
7951
7953
7955
7960
7963
7965
7968
7969
7976
7979
7982
7986
7986
7988
7989
7991
7993
7997
8001
8007
8013
8019
8024
8025
8028
8031
8034
8036
8038
8041
8046
8047
8049
8054
8060
8061
8065
8066
8071
8075
8075
8080
8084
8086
8090
8092
8098
8102
8105
8108
8112
8115
8117
8122
8126
8127
8130
8136
8139
8143
8147
8150
8150
8154
8159
8162
8163
8163
8166
8172
8176
8179
8184
8188
8190
8192
8199
8204
8209
8211
8211
8214
8217
8223
8226
8226
8227
8230
8234
8238
8240
8242
8244
8250
8254
8256
8259
8259
8262
8265
8266
8267
8275
8278
8280
8282
8283
8286
8288
8290
8290
8294
8298
8301
8304
8307
8312
8319
8321
8327
8327
8330
8330
8334
8334
8340
8342
8343
8346
8350
8354
8356
8358
8361
8366
8368
8370
8374
8377
8382
8384
8384
8388
8389
8392
8396
8398
8401
8402
8404
8407
8409
8410
8414
8415
8417
8423
8432
8436
8440
8441
8446
8449
8452
8456
8457
8459
8462
8463
8465
8468
8470
8472
8472
8475
8477
8481
8485
8487
8490
8493
8497
8500
8503
8505
8508
8508
8511
8516
8519
8521
8522
8527
8530
8532
8534
8537
8541
8541
8548
8552
8553
8555
8559
8560
8563
8565
8566
8569
8570
8573
8578
8581
8583
8584
8585
8590
8592
8597
8600
8604
8610
8613
8614
8618
8621
8624
8624
8624
8628
8631
8632
8634
8640
8643
8646
8647
8649
8651
8651
8655
8656
8658
8660
8663
8666
8670
8671
8671
8672
8672
8677
8679
8680
8688
8690
8692
8695
8702
8705
8708
8710
8714
8722
8726
8730
8732
8734
8735
8738
8739
8742
8746
8748
8753
8756
8759
8762
8763
8767
8771
8772
8775
8782
8782
8785
8789
8792
8792
8795
8801
8804
8808
8811
8811
8815
8820
8823
8827
8831
8833
8835
8838
8843
8845
8849
8850
8854
8856
8857
8858
8859
8861
8864
8866
8871
8874
8876
8879
8882
8888
8895
8897
8901
8904
8907
8910
8913
8915
8917
8918
8920
8921
8928
8932
8941
8943
8949
8952
8954
8956
8960
8961
8964
8967
8969
8969
8974
8977
8978
8980
8983
8990
8992
8997
9001
9003
9006
9008
9010
9014
9015
9016
9020
9021
9026
9028
9030
9032
9034
9038
9039
9041
9044
9045
9049
9051
9055
9060
9063
9066
9067
9070
9075
9078
9082
9086
9087
9091
9096
9102
9107
9112
9115
9118
9120
9122
9125
9127
9128
9131
9134
9138
9141
9149
9149
9153
9158
9161
9166
9169
9170
9174
9179
9182
9186
9190
9192
9194
9196
9199
9201
9203
9208
9212
9216
9219
9224
9225
9228
9231
9231
9237
9238
9244
9245
9248
9255
9257
9261
9264
9266
9275
9278
9281
9283
9284
9288
9294
9296
9299
9299
9300
9303
9306
9311
9316
9319
9321
9326
9328
9330
9332
9335
9342
9347
9348
9355
9357
9361
9365
9366
9367
9372
9374
9375
9377
9378
9382
9385
9388
9392
9399
9401
9405
9407
9410
9412
9415
9418
9420
9425
9429
9433
9435
9438
9445
9449
9454
9456
9466
9469
9474
9478
9483
9487
9490
9491
9493
9495
9500
9502
9508
9509
9514
9514
9518
9523
9527
9527
9529
9531
9534
9539
9547
9549
9552
9560
9560
9562
9562
9564
9568
9570
9573
9574
9577
9581
9587
9589
9592
9595
9599
9602
9607
9612
9613
9617
9621
9624
9625
9626
9627
9634
9637
9640
9642
9645
9648
9653
9655
9656
9656
9658
9663
9664
9669
9671
9676
9684
9686
9687
9693
9694
9697
9701
9707
9710
9713
9717
9718
9722
9724
9727
9727
9730
9733
9736
9742
9745
9748
9749
9753
9755
9762
9767
9771
9774
9780
9780
9782
9784
9787
9791
9792
9795
9798
9802
9808
9811
9814
9816
9820
9824
9829
9830
9832
9839
9843
9846
9851
9856
9860
9866
9871
9878
9879
9885
9888
9890
9893
9896
9901
9904
9904
9905
9906
9909
9911
9913
9915
9916
9922
9925
9925
9925
9929
9931
9934
9937
9939
9942
9946
9949
9952
9955
9958
9961
9963
9965
9967
9968
9971
9977
9978
9982
9985
9987
9990
9993
9996
9999
10003
10005
10009
10013
10015
10015
10019
10021
10022
10026
10032
10034
10038
10041
10044
10047
10048
10050
10052
10056
10061
10065
10067
10072
10076
10080
10083
10086
10089
10091
10094
10095
10101
10104
10105
10109
10109
10111
10121
10125
10125
10128
10134
10136
10144
10153
10158
10162
10166
10169
10170
10172
10173
10175
10177
10182
10184
10189
10192
10198
10200
10204
10207
10208
10210
10214
10215
10218
10221
10224
10227
10231
10235
10236
10236
10237
10238
10246
10249
10255
10258
10258
10261
10269
10272
10275
10279
10283
10289
10291
10295
10298
10299
10300
10303
10304
10304
10308
10309
10310
10311
10312
10317
10318
10323
10325
10327
10330
10332
10333
10336
10337
10341
10347
10352
10356
10357
10360
10365
10368
10369
10370
10374
10375
10376
10379
10380
10382
10385
10387
10388
10389
10393
10396
10397
10403
10405
10406
10410
10413
10420
10421
10424
10425
10428
10432
10434
10437
10444
10446
10452
10455
10458
10464
10466
10469
10473
10475
10478
10484
10486
10491
10493
10494
10496
10497
10498
10501
10505
10507
10507
10509
10512
10517
10521
10522
10524
10527
10531
10535
10536
10538
10544
10552
10552
10555
10561
10566
10570
10572
10574
10574
10578
10579
10582
10586
10588
10592
10594
10597
10600
10602
10604
10605
10607
10611
10614
10616
10618
10622
10623
10627
10633
10634
10637
10641
10644
10648
10650
10653
10658
10663
10666
10667
10670
10671
10672
10674
10676
10679
10683
10685
10685
10690
10693
10698
10701
10705
10707
10712
10715
10716
10720
10725
10729
10734
10736
10739
10740
10742
10744
10748
10752
10753
10753
10758
10761
10763
10767
10768
10769
10775
10775
10776
10778
10785
10787
10791
10793
10795
10800
10802
10806
10808
10812
10815
10817
10821
10827
10831
10831
10833
10838
10845
10851
10855
10856
10859
10863
10866
10869
10871
10872
10874
10876
10881
10884
10888
10890
10892
10893
10894
10896
10901
10905
10908
10912
10912
10916
10920
10925
10928
10931
10933
10935
10937
10939
10943
10947
10952
10953
10956
10960
10964
10966
10967
10969
10973
10977
10983
10984
10985
10988
10991
10994
10995
11001
11006
11010
11015
11017
11017
11020
11025
11026
11027
11032
11033
11036
11039
11043
11045
11046
11050
11056
11057
11063
11065
11070
11073
11074
11077
11079
11081
11088
11090
11093
11097
11101
11106
11107
11109
11112
11114
11118
11119
11121
11123
11129
11131
11134
11139
11144
11148
11151
11153
11157
11161
11163
11166
11170
11173
11175
11179
11181
11185
11187
11189
11192
11194
11195
11198
11201
11204
11209
11213
11215
11217
11220
11221
11224
11226
11230
11233
11237
11239
11242
11245
11249
11252
11255
11256
11260
11265
11267
11269
11273
11278
11283
11284
11285
11289
11291
11294
11297
11298
11301
11305
11309
11309
11310
11316
11318
11320
11321
11321
11323
11328
11331
11334
11336
11338
11341
11346
11351
11355
11358
11364
11365
11368
11372
11376
11381
11384
11384
11388
11393
11394
11395
11398
11398
11401
11405
11411
11416
11417
11421
11425
11426
11427
11429
11436
11437
11442
11448
11449
11450
11453
11457
11458
11460
11465
11467
11469
11470
11472
11475
11480
11481
11483
11485
11489
11493
11497
11499
11502
11504
11507
11508
11515
11521
11525
11528
11531
11535
11540
11541
11543
11546
11550
11555
11559
11563
11565
11569
11572
11577
11577
11586
11589
11593
11595
11597
11600
11603
11603
11605
11607
11611
11614
11620
11623
11625
11628
11630
11633
11637
11638
11641
11641
11645
11649
11653
11660
11661
11662
11667
11670
11672
11675
11676
11679
11686
11689
11691
11697
11702
11706
11706
11711
11716
11718
11720
11721
11724
11728
11732
11734
11736
11739
11742
11743
11746
11748
11750
11755
11757
11761
11762
11764
11765
11767
11771
11774
11776
11778
11780
11781
11786
11786
11788
11790
11792
11794
11796
11796
11798
11800
11802
11806
11806
11806
11810
11816
11819
11822
11825
11828
11832
11835
11838
11838
11839
11840
11841
11844
11846
11848
11852
11854
11855
11856
11859
11862
11863
11866
11870
11872
11875
11880
11881
11884
11890
11893
11894
11895
11903
11906
11912
11914
11916
11919
11920
11926
11928
11930
11937
11941
11942
11944
11947
11948
11950
11952
11954
11954
11959
11961
11963
11965
11967
11970
11975
11976
11980
11985
11985
11986
11987
11990
11993
11994
11997
12000
12004
12010
12013
12015
12018
12024
12028
12032
12037
12040
12042
12044
12049
12053
12056
12057
12060
12062
12066
12069
12071
12074
12076
12082
12086
12090
12095
12099
12100
12104
12106
12109
12112
12115
12120
12123
12125
12127
12132
12134
12137
12138
12141
12142
12145
12147
12151
12153
12157
12158
12159
12163
12166
12171
12174
12177
12181
12183
12186
12189
12190
12193
12197
12199
12201
12202
12205
12209
12212
12216
12217
12218
12221
12227
12233
12238
12240
12247
12248
12255
12259
12264
12270
12273
12275
12278
12280
12281
12285
12288
12289
12293
12296
12299
12305
12307
12310
12310
12312
12316
12321
12322
12325
12330
12335
12339
12340
12345
12347
12349
12350
12353
12354
12357
12362
12368
12370
12373
12374
12378
12380
12381
12384
12388
12396
12398
12400
12402
12406
12411
12416
12419
12421
12422
12425
12428
12430
12431
12436
12440
12444
12447
12453
12457
12460
12463
12468
12472
12477
12482
12484
12485
12486
12487
12490
12491
12494
12498
12500
12504
12507
12512
12515
12519
12521
12524
12529
12533
12537
12540
12545
12548
12549
12552
12558
12558
12562
12564
12570
12572
12579
12581
12582
12586
12593
12594
12596
12598
12601
12603
12605
12607
12608
12609
12616
12618
12622
12623
12626
12627
12630
12632
12634
12638
12639
12643
12643
12644
12648
12651
12653
12654
12661
12664
12667
12672
12674
12677
12680
12683
12685
12689
12690
12690
12692
12693
12695
12697
12698
12704
12707
12708
12712
12714
12714
12715
12718
12719
12720
12722
12724
12725
12727
12730
12733
12733
12734
12739
12741
12743
12748
12750
12752
12753
12759
12761
12768
12770
12773
12775
12779
12781
12782
12784
12784
12788
12791
12793
12800
12806
12808
12812
12813
12816
12817
12819
12824
12827
12831
12834
12837
12839
12842
12844
12850
12850
12853
12860
12865
12871
12875
12877
12880
12883
12888
12890
12890
12898
12898
12899
12899
12902
12903
12905
12906
12908
12911
12914
12920
12920
12924
12928
12934
12937
12938
12940
12943
12945
12951
12953
12960
12962
12967
12970
12975
12980
12986
12987
12990
12994
12998
13003
13004
13008
13010
13011
13015
13017
13017
13018
13021
13025
13027
13028
13031
13036
13040
13043
13048
13049
13051
13052
13056
13061
13062
13066
13067
13070
13072
13079
13080
13081
13086
13088
13089
13093
13097
13098
13098
13103
13107
13108
13111
13115
13118
13123
13126
13129
13135
13137
13141
13143
13145
13149
13152
13156
13157
13159
13163
13166
13169
13174
13175
13175
13176
13180
13182
13183
13189
13194
13197
13199
13202
13205
13211
13215
13217
13220
13223
13225
13229
13233
13235
13238
13239
13240
13243
13248
13253
13258
13261
13265
13267
13272
13278
13279
13280
13284
13286
13288
13289
13294
13298
13300
13302
13304
13308
13311
13316
13316
13318
13320
13320
13324
13329
13330
13335
13337
13339
13340
13342
13346
13350
13351
13357
13361
13364
13370
13371
13376
13380
13387
13388
13391
13393
13399
13402
13402
13405
13409
13412
13415
13421
13424
13430
13434
13440
13445
13448
13453
13459
13462
13467
13471
13476
13479
13481
13482
13483
13488
13493
13494
13494
13499
13502
13502
13505
13507
13508
13513
13517
13521
13522
13527
13530
13532
13535
13537
13539
13539
13543
13548
13551
13554
13556
13556
13558
13561
13561
13565
13568
13572
13577
13580
13584
13588
13591
13596
13599
13602
13607
13615
13622
13627
13630
13635
13637
13638
13644
13647
13650
13651
13654
13657
13657
13659
13664
13671
13675
13680
13681
13682
13687
13690
13695
13698
13703
13705
13708
13710
13713
13718
13724
13728
13731
13732
13733
13736
13739
13742
13748
13753
13759
13763
13766
13772
13777
13781
13783
13789
13792
13794
13799
13802
13807
13812
13819
13824
13826
13830
13834
13839
13840
13842
13844
13849
13853
13854
13860
13864
13864
13869
13870
13873
13876
13880
13881
13887
13891
13894
13895
13897
13899
13904
13904
13906
13909
13915
13917
13919
13923
13926
13929
13931
13935
13938
13942
13949
13951
13954
13957
13962
13965
13967
13973
13977
13980
13988
13993
13998
14000
14007
14009
14013
14016
14021
14022
14025
14028
14029
14034
14035
14038
14042
14044
14049
14052
14054
14058
14062
14067
14073
14075
14075
14081
14085
14091
14092
14093
14097
14100
14100
14107
14111
14114
14117
14120
14125
14126
14132
14135
14139
14143
14145
14146
14150
14157
14157
14158
14160
14165
14166
14168
14173
14179
14184
14187
14193
14194
14198
14199
14201
14205
14206
14209
14212
14216
14221
14226
14232
14234
14238
14239
14242
14245
14249
14251
14256
14262
14265
14266
14267
14268
14273
14276
14279
14284
14286
14290
14294
14295
14301
14303
14307
14312
14314
14318
14318
14321
14324
14330
14332
14335
14337
14337
14341
14348
14352
14354
14357
14359
14363
14366
14367
14374
14375
14378
14381
14381
14383
14386
14388
14392
14394
14401
14403
14403
14406
14412
14414
14416
14420
14422
14422
14426
14429
14431
14434
14435
14438
14443
14445
14447
14451
14455
14457
14459
14462
14465
14471
14473
14477
14479
14483
14485
14490
14498
14501
14503
14505
14511
14514
14515
14519
14521
14523
14529
14533
14536
14536
14538
14538
14540
14544
14547
14548
14549
14553
14556
14561
14564
14565
14570
14574
14577
14579
14581
14584
14585
14589
14593
14595
14597
14597
14603
14610
14614
14616
14621
14625
14627
14629
14632
14633
14635
14635
14643
14646
14649
14651
14651
14654
14659
14663
14664
14669
14670
14673
14676
14678
14682
14685
14689
14694
14694
14699
14701
14703
14706
14708
14710
14714
14718
14722
14725
14729
14729
14731
14736
14739
14747
14753
14757
14757
14758
14760
14765
14769
14770
14772
14773
14776
14778
14780
14783
14787
14788
14793
14800
14802
14802
14804
14809
14811
14812
14817
14821
14824
14826
14828
14830
14834
14836
14840
14841
14846
14848
14848
14850
14852
14855
14860
14862
14862
14867
14873
14875
14880
14883
14887
14891
14895
14896
14901
14903
14907
14909
14910
14913
14918
14923
14927
14930
14932
14935
14939
14941
14943
14947
14950
14954
14958
14959
14959
14959
14964
14964
14966
14968
14971
14976
14979
14981
14984
14987
14988
14989
14990
14997
14999
15001
15004
15006
15009
15011
15015
15018
15022
15025
15027
15029
15034
15035
15040
15041
15044
15048
15050
15058
15061
15064
15067
15069
15072
15077
15079
15083
15087
15091
15094
15096
15099
15100
15100
15103
15104
15108
15109
15111
15111
15114
15120
15125
15128
15129
15131
15135
15138
15140
15143
15147
15148
15150
15151
15154
15157
15163
15165
15171
15173
15176
15180
15180
15184
15186
15189
15193
15194
15199
15202
15208
15209
15212
15215
15218
15222
15225
15230
15231
15236
15240
15247
15250
15252
15254
15257
15261
15265
15266
15268
15273
15277
15281
15285
15288
15288
15295
15298
15299
15302
15306
15309
15316
15319
15322
15326
15329
15332
15335
15338
15343
15346
15350
15353
15356
15359
15363
15369
15370
15372
15373
15378
15379
15380
15384
15388
15390
15392
15392
15392
15394
15397
15401
15403
15405
15408
15413
15419
15419
15423
15430
15430
15435
15437
15441
15443
15445
15445
15453
15458
15463
15466
15466
15471
15473
15475
15482
15485
15487
15490
15494
15497
15502
15504
15506
15508
15513
15514
15517
15525
15530
15532
15536
15539
15541
15546
15552
15554
15557
15562
15566
15568
15573
15575
15578
15581
15584
15587
15590
15593
15597
15600
15603
15604
15606
15609
15611
15614
15620
15622
15627
15627
15627
15630
15635
15637
15638
15639
15640
15645
15646
15648
15654
15656
15657
15657
15660
15662
15663
15667
15673
15676
15678
15684
15690
15691
15693
15697
15699
15704
15709
15712
15713
15715
15720
15723
15727
15728
15730
15731
15735
15739
15740
15742
15745
15746
15749
15755
15756
15761
15765
15768
15776
15780
15783
15784
15786
15789
15790
15796
15797
15800
15805
15805
15811
15814
15816
15817
15822
15826
15827
15829
15830
15832
15833
15841
15842
15847
15850
15856
15858
15859
15860
15861
15861
15865
15870
15871
15874
15876
15879
15886
15890
15892
15899
15904
15909
15912
15918
15919
15923
15929
15932
15933
15937
15939
15944
15948
15952
15955
15958
15962
15967
15972
15974
15979
15983
15986
15988
15994
15998
16000
16004
16009
16012
16013
16015
16018
16021
16023
16026
16029
16029
16034
16034
16037
16039
16044
16045
16047
16048
16049
16052
16054
16059
16064
16064
16067
16069
16072
16076
16079
16083
16085
16090
16094
16096
16098
16099
16107
16109
16112
16115
16117
16119
16121
16124
16126
16128
16133
16134
16136
16137
16141
16144
16147
16148
16150
16153
16158
16163
16167
16171
16175
16177
16180
16181
16184
16187
16189
16191
16195
16197
16200
16204
16206
16210
16210
16216
16221
16223
16226
16231
16234
16240
16242
16242
16242
16246
16247
16249
16252
16257
16264
16266
16268
16270
16272
16274
16276
16278
16281
16284
16288
16289
16295
16297
16298
16300
16304
16308
16316
16317
16319
16323
16328
16331
16338
16340
16341
16344
16345
16348
16350
16353
16356
16359
16361
16363
16365
16368
16370
16371
16372
16376
16383
16385
16389
16391
16394
16397
16401
16408
16409
16411
16415
16418
16420
16420
16420
16423
16427
16428
16432
16436
16441
16442
16446
16449
16452
16455
16458
16461
16462
16468
16472
16473
16474
16477
16480
16481
16485
16487
16487
16491
16496
16502
16504
16506
16508
16509
16517
16526
16530
16533
16539
16543
16549
16552
16557
16558
16559
16563
16563
16565
16568
16571
16575
16576
16578
16582
16582
16585
16586
16593
16596
16601
16604
16605
16610
16611
16615
16619
16623
16624
16627
16632
16634
16635
16638
16642
16648
16658
16660
16661
16666
16666
16667
16668
16670
16673
16677
16680
16682
16686
16688
16692
16695
16702
16704
16708
16711
16717
16719
16722
16724
16727
16735
16736
16740
16743
16744
16746
16751
16754
16754
16759
16763
16766
16767
16770
16773
16775
16778
16781
16785
16787
16791
16793
16798
16801
16802
16806
16807
16809
16810
16816
16820
16823
16828
16828
16831
16833
16835
16838
16840
16843
16850
16856
16857
16858
16860
16861
16867
16870
16872
16875
16877
16878
16887
16893
16895
16897
16900
16902
16905
16907
16910
16914
16919
16923
16928
16928
16933
16935
16937
16941
16942
16946
16947
16949
16953
16955
16959
16962
16964
16966
16969
16973
16979
16983
16985
16988
16993
16996
17000
17003
17006
17006
17010
17012
17014
17020
17025
17027
17028
17032
17036
17039
17043
17046
17048
17049
17055
17059
17065
17067
17068
17070
17070
17073
17078
17080
17085
17086
17089
17090
17090
17098
17102
17105
17110
17113
17114
17115
17118
17120
17122
17122
17125
17129
17130
17135
17137
17142
17142
17146
17148
17151
17158
17162
17164
17166
17168
17171
17172
17174
17180
17181
17186
17190
17192
17192
17192
17193
17198
17202
17205
17208
17210
17213
17214
17218
17219
17226
17227
17230
17231
17236
17240
17245
17248
17250
17254
17256
17257
17258
17260
17266
17270
17272
17273
17273
17274
17277
17282
17285
17287
17289
17291
17295
17296
17300
17302
17302
17308
17309
17310
17311
17313
17316
17318
17321
17323
17327
17331
17333
17337
17339
17341
17342
17347
17351
17355
17360
17364
17368
17369
17371
17375
17377
17378
17380
17383
17385
17389
17391
17392
17393
17395
17400
17402
17404
17405
17409
17409
17412
17415
17416
17417
17418
17418
17418
17423
17427
17428
17428
17433
17435
17438
17445
17447
17451
17453
17460
17462
17469
17471
17473
17480
17481
17484
17487
17489
17491
17493
17497
17501
17504
17508
17510
17514
17517
17521
17523
17527
17527
17528
17530
17532
17536
17537
17542
17544
17546
17548
17548
17548
17550
17551
17554
17558
17560
17561
17563
17564
17565
17570
17574
17578
17581
17584
17586
17587
17594
17598
17599
17610
17614
17617
17619
17624
17628
17631
17635
17637
17641
17645
17646
17648
17651
17653
17658
17660
17664
17666
17669
17671
17676
17677
17679
17682
17683
17685
17691
17692
17696
17698
17700
17704
17707
17713
17715
17720
17726
17728
17730
17733
17741
17741
17744
17745
17751
17754
17754
17755
17758
17759
17761
17764
17765
17770
17776
17778
17780
17785
17786
17790
17793
17796
17798
17802
17804
17806
17808
17809
17812
17815
17818
17820
17822
17824
17829
17831
17832
17834
17836
17840
17843
17846
17854
17857
17860
17866
17869
17871
17874
17881
17883
17884
17887
17890
17893
17899
17904
17906
17909
17911
17914
17920
17923
17923
17926
17926
17928
17930
17931
17936
17938
17943
17943
17943
17948
17952
17952
17957
17962
17963
17964
17967
17970
17975
17982
17986
17991
17993
17997
18000
18003
18005
18008
18011
18015
18019
18026
18027
18031
18033
18039
18045
18049
18049
18051
18057
18059
18063
18065
18069
18071
18076
18078
18079
18081
18083
18087
18091
18094
18095
18096
18099
18102
18107
18110
18116
18118
18120
18127
18129
18134
18138
18143
18148
18150
18153
18159
18160
18164
18167
18169
18174
18179
18184
18184
18189
18191
18196
18198
18200
18202
18206
18208
18211
18216
18220
18223
18225
18228
18231
18237
18240
18244
18245
18249
18253
18258
18259
18262
18265
18269
18270
18271
18273
18275
18277
18280
18285
18288
18293
18295
18299
18302
18306
18309
18311
18313
18315
18321
18323
18325
18325
18328
18330
18332
18334
18338
18345
18346
18347
18350
18354
18356
18364
18366
18375
18380
18380
18383
18384
18386
18391
18395
18397
18402
18405
18405
18408
18412
18414
18419
18421
18428
18429
18433
18433
18437
18442
18445
18446
18447
18453
18454
18456
18459
18462
18467
18471
18473
18477
18480
18483
18484
18486
18487
18489
18493
18497
18502
18505
18510
18515
18518
18518
18520
18521
18526
18527
18532
18533
18534
18534
18539
18545
18548
18549
18552
18554
18554
18554
18556
18557
18561
18564
18566
18570
18572
18573
18575
18579
18582
18587
18589
18592
18595
18600
18604
18608
18610
18611
18614
18617
18622
18624
18625
18629
18631
18636
18638
18639
18641
18642
18646
18651
18654
18659
18661
18669
18670
18674
18674
18677
18680
18683
18686
18688
18688
18690
18693
18696
18702
18705
18708
18709
18711
18712
18716
18720
18722
18725
18727
18733
18736
18739
18740
18747
18752
18755
18755
18759
18760
18763
18768
18773
18773
18779
18782
18783
18786
18788
18792
18793
18797
18800
18804
18807
18811
18813
18816
18819
18823
18826
18828
18829
18835
18838
18839
18843
18844
18848
18850
18854
18861
18864
18866
18868
18872
18877
18883
18887
18888
18892
18894
18895
18897
18898
18901
18903
18904
18906
18908
18912
18913
18917
18920
18923
18924
18928
18934
18936
18943
18945
18946
18949
18952
18955
18959
18963
18966
18972
18977
18980
18981
18985
18988
18989
18991
18994
18994
18998
19000
19005
19008
19012
19013
19014
19016
19020
19025
19031
19036
19037
19039
19040
19046
19049
19051
19057
19061
19064
19068
19069
19069
19071
19071
19076
19078
19079
19084
19085
19088
19089
19095
19100
19104
19109
19111
19112
19115
19117
19120
19122
19128
19130
19131
19132
19134
19137
19137
19138
19140
19144
19150
19155
19156
19160
19164
19166
19166
19167
19169
19173
19176
19179
19182
19183
19186
19190
19197
19199
19201
19202
19205
19208
19210
19212
19218
19221
19224
19227
19230
19233
19239
19244
19246
19253
19255
19258
19262
19266
19267
19272
19273
19273
19281
19284
19285
19289
19295
19297
19299
19301
19305
19305
19306
19310
19310
19314
19318
19323
19330
19333
19337
19339
19341
19342
19346
19350
19355
19356
19363
19369
19371
19374
19376
19381
19384
19386
19389
19389
19390
19394
19397
19404
19408
19413
19415
19421
19424
19426
19431
19432
19435
19440
19444
19449
19451
19456
19459
19460
19464
19469
19470
19474
19476
19476
19484
19486
19492
19495
19497
19501
19506
19510
19511
19511
19513
19513
19515
19522
19524
19526
19529
19532
19538
19543
19545
19549
19552
19559
19562
19563
19564
19567
19571
19574
19578
19583
19588
19590
19595
19599
19602
19604
19610
19615
19617
19619
19625
19628
19631
19636
19645
19653
19657
19661
19662
19667
19669
19670
19676
19678
19681
19682
19684
19689
19694
19697
19699
19702
19704
19706
19709
19710
19713
19720
19722
19726
19733
19736
19737
19738
19741
19743
19745
19751
19756
19757
19758
19763
19765
19769
19775
19777
19777
19782
19783
19790
19794
19799
19801
19805
19809
19813
19815
19816
19818
19820
19826
19826
19827
19830
19831
19834
19840
19842
19844
19845
19847
19849
19855
19859
19861
19865
19867
19868
19869
19872
19874
19877
19881
19883
19886
19886
19890
19892
19894
19897
19901
19902
19906
19907
19910
19914
19916
19921
19926
19931
19933
19937
19938
19941
19944
19945
19947
19950
19957
19960
19964
19967
19975
19979
19985
19988
19992
19998
20000
20003
20008
20011
20013
20015
20018
20021
20022
20025
20025
20027
20029
20030
20034
20035
20042
20045
20047
20049
20052
20054
20055
20058
20061
20065
20066
20067
20069
20073
20076
20078
20079
20079
20087
20092
20099
20101
20107
20111
20113
20117
20118
20122
20126
20132
20134
20140
20142
20146
20154
20155
20158
20166
20168
20169
20171
20176
20185
20187
20191
20196
20200
20204
20211
20211
20217
20221
20221
20223
20228
20228
20231
20234
20237
20240
20242
20246
20251
20252
20255
20259
20262
20267
20272
20277
20280
20283
20286
20287
20290
20295
20301
20306
20310
20311
20312
20316
20317
20324
20325
20328
20332
20335
20336
20339
20345
20350
20352
20356
20362
20365
20371
20373
20374
20374
20374
20375
20376
20376
20379
20383
20389
20391
20395
20404
20404
20407
20412
20417
20419
20421
20423
20424
20426
20433
20436
20437
20441
20446
20448
20450
20452
20457
20461
20461
20463
20467
20467
20470
20472
20476
20479
20482
20486
20490
20492
20495
20500
20505
20512
20514
20516
20519
20525
20530
20532
20537
20540
20540
20541
20549
20554
20561
20563
20566
20572
20575
20577
20580
20585
20588
20591
20594
20596
20597
20601
20604
20605
20610
20616
20621
20625
20629
20635
20636
20642
20645
20649
20655
20658
20661
20664
20665
20669
20670
20671
20673
20677
20681
20684
20687
20689
20691
20695
20701
20706
20709
20714
20717
20719
20728
20729
20733
20736
20738
20739
20745
20746
20751
20753
20754
20755
20758
20761
20762
20764
20768
20776
20781
20785
20789
20792
20795
20799
20805
20807
20811
20814
20817
20822
20830
20837
20841
20847
20849
20855
20861
20862
20868
20870
20875
20879
20881
20884
20884
20887
20887
20888
20890
20896
20898
20899
20902
20904
20908
20913
20916
20918
20920
20924
20927
20930
20936
20938
20941
20941
20944
20947
20953
20957
20958
20965
20969
20970
20975
20979
20981
20986
20988
20990
20992
20995
21000
21003
21005
21005
21010
21015
21016
21020
21024
21029
21031
21032
21034
21035
21038
21040
21043
21047
21053
21060
21063
21064
21070
21076
21078
21081
21083
21088
21091
21094
21096
21101
21103
21105
21109
21113
21115
21118
21121
21123
21128
21132
21133
21135
21137
21139
21142
21145
21147
21150
21150
21154
21156
21159
21160
21161
21166
21171
21176
21179
21183
21185
21188
21192
21197
21201
21202
21203
21205
21212
21215
21217
21218
21218
21220
21223
21226
21228
21232
21235
21236
21242
21243
21243
21247
21250
21250
21256
21256
21259
21263
21266
21268
21269
21274
21278
21283
21288
21295
21295
21296
21299
21301
21304
21309
21311
21315
21323
21326
21328
21329
21335
21338
21340
21341
21341
21342
21345
21351
21353
21356
21362
21365
21371
21372
21373
21374
21374
21377
21382
21386
21388
21390
21391
21398
21399
21402
21405
21408
21411
21411
21415
21419
21426
21427
21429
21432
21434
21436
21440
21445
21449
21452
21457
21461
21464
21464
21469
21473
21474
21478
21479
21483
21489
21493
21496
21496
21500
21502
21506
21511
21514
21517
21522
21524
21527
21529
21530
21530
21532
21532
21533
21538
21542
21542
21545
21547
21553
21558
21564
21570
21573
21576
21579
21584
21587
21590
21594
21596
21602
21609
21612
21617
21623
21626
21629
21631
21634
21639
21643
21650
21651
21653
21655
21658
21661
21663
21665
21668
21668
21670
21673
21674
21678
21682
21685
21690
21692
21698
21700
21701
21704
21707
21708
21711
21714
21717
21717
21718
21720
21722
21722
21728
21736
21738
21743
21746
21748
21751
21753
21757
21758
21759
21760
21764
21767
21774
21776
21777
21780
21782
21787
21793
21794
21797
21800
21800
21803
21804
21809
21811
21816
21818
21823
21826
21827
21829
21830
21838
21842
21844
21846
21848
21855
21861
21864
21868
21870
21871
21872
21873
21875
21875
21875
21877
21880
21885
21891
21894
21900
21901
21903
21908
21910
21914
21917
21920
21921
21925
21932
21937
21943
21949
21953
21953
21960
21961
21963
21964
21966
21967
21968
21972
21973
21978
21981
21984
21986
21988
21989
21994
21997
21998
22004
22006
22007
22010
22013
22018
22023
22027
22030
22031
22033
22038
22044
22047
22049
22051
22056
22057
22060
22063
22066
22072
22075
22080
22082
22084
22085
22086
22091
22096
22097
22098
22100
22102
22104
22106
22109
22111
22111
22112
22114
22116
22121
22123
22127
22129
22132
22136
22139
22140
22142
22143
22144
22146
22149
22151
22155
22160
22161
22162
22164
22167
22170
22177
22179
22185
22187
22191
22194
22197
22199
22202
22204
22206
22211
22216
22216
22221
22223
22226
22228
22232
22233
22237
22240
22243
22249
22252
22254
22257
22259
22261
22263
22266
22267
22267
22269
22271
22275
22276
22278
22280
22285
22288
22291
22297
22301
22302
22305
22306
22312
22314
22319
22322
22327
22333
22334
22336
22338
22344
22348
22348
22356
22358
22360
22363
22367
22371
22372
22373
22374
22379
22382
22384
22387
22392
22396
22402
22403
22408
22408
22411
22412
22414
22420
22423
22427
22431
22433
22436
22438
22441
22445
22447
22450
22452
22456
22458
22460
22460
22466
22468
22472
22477
22479
22481
22488
22491
22491
22499
22501
22502
22506
22509
22510
22512
22514
22519
22522
22524
22525
22531
22532
22533
22534
22535
22536
22537
22542
22543
22544
22546
22549
22551
22552
22556
22556
22556
22558
22561
22564
22567
22571
22575
22576
22582
22583
22586
22589
22590
22596
22599
22603
22604
22608
22611
22615
22619
22621
22623
22627
22632
22637
22640
22643
22645
22648
22649
22654
22656
22658
22659
22661
22665
22669
22670
22674
22676
22676
22680
22681
22686
22688
22689
22692
22696
22698
22704
22708
22712
22715
22719
22723
22727
22732
22733
22733
22734
22739
22742
22748
22749
22754
22762
22763
22767
22771
22774
22778
22780
22782
22782
22788
22791
22794
22798
22802
22804
22808
22810
22815
22818
22822
22827
22828
22829
22830
22834
22839
22842
22843
22844
22846
22848
22849
22854
22856
22858
22862
22864
22867
22867
22869
22871
22873
22879
22879
22881
22881
22883
22887
22892
22896
22898
22900
22903
22904
22907
22909
22913
22918
22921
22924
22926
22927
22929
22933
22935
22937
22940
22946
22948
22952
22954
22956
22962
22966
22968
22975
22977
22981
22987
22992
22994
22999
23002
23003
23009
23010
23016
23017
23021
23022
23025
23026
23031
23033
23036
23037
23043
23048
23051
23052
23053
23058
23063
23063
23067
23068
23070
23073
23076
23077
23080
23083
23086
23088
23090
23094
23096
23099
23103
23105
23109
23111
23115
23117
23117
23121
23121
23124
23126
23129
23130
23131
23133
23133
23138
23139
23141
23141
23147
23149
23151
23154
23157
23158
23160
23165
23168
23171
23173
23178
23182
23189
23193
23195
23198
23203
23204
23210
23212
23215
23217
23220
23220
23223
23227
23233
23238
23242
23246
23249
23254
23257
23257
23261
23263
23264
23266
23271
23273
23278
23281
23283
23287
23288
23290
23291
23292
23295
23298
23299
23302
23304
23308
23311
23312
23314
23320
23323
23326
23328
23333
23335
23339
23340
23345
23346
23351
23355
23357
23363
23367
23370
23373
23373
23380
23384
23385
23388
23391
23394
23396
23401
23403
23406
23411
23413
23416
23418
23419
23421
23423
23428
23428
23431
23432
23435
23437
23440
23443
23448
23451
23454
23457
23458
23461
23464
23465
23466
23470
23473
23477
23477
23480
23481
23482
23486
23492
23492
23493
23494
23497
23498
23500
23502
23504
23510
23513
23519
23525
23532
23533
23536
23539
23542
23546
23547
23552
23554
23559
23560
23562
23566
23567
23572
23573
23577
23581
23584
23587
23591
23593
23595
23596
23599
23599
23602
23607
23610
23618
23620
23628
23631
23633
23638
23641
23643
23644
23649
23650
23653
23658
23663
23666
23669
23669
23673
23675
23677
23677
23678
23681
23685
23687
23689
23691
23694
23696
23700
23705
23706
23711
23714
23715
23718
23722
23725
23729
23731
23734
23738
23743
23744
23745
23745
23746
23750
23756
23758
23760
23764
23764
23765
23769
23777
23779
23781
23782
23785
23787
23790
23793
23795
23797
23801
23807
23810
23815
23816
23821
23822
23825
23827
23831
23833
23838
23840
23840
23841
23846
23851
23855
23859
23861
23863
23866
23870
23874
23876
23879
23884
23887
23890
23892
23896
23900
23905
23910
23911
23914
23915
23918
23923
23924
23926
23929
23933
23936
23938
23942
23944
23945
23949
23952
23956
23959
23961
23966
23970
23975
23977
23980
23982
23990
23992
23996
23998
24000
24005
24010
24010
24011
24017
24021
24026
24030
24032
24038
24041
24043
24045
24051
24054
24055
24058
24059
24060
24066
24069
24074
24077
24079
24082
24086
24086
24091
24094
24099
24100
24103
24106
24108
24110
24114
24115
24120
24123
24124
24129
24135
24137
24139
24144
24148
24155
24158
24162
24165
24166
24168
24171
24174
24177
24180
24180
24181
24182
24186
24187
24189
24195
24197
24197
24199
24203
24204
24206
24209
24210
24213
24217
24221
24225
24228
24231
24231
24231
24232
24239
24239
24241
24243
24246
24251
24254
24257
24258
24261
24264
24268
24270
24275
24278
24284
24286
24286
24288
24291
24296
24299
24300
24302
24304
24307
24314
24316
24319
24321
24327
24330
24331
24333
24334
24337
24339
24343
24348
24352
24357
24359
24360
24362
24365
24367
24371
24373
24373
24374
24375
24375
24382
24384
24384
24387
24388
24391
24394
24396
24397
24400
24404
24406
24406
24410
24411
24414
24416
24417
24420
24426
24427
24431
24433
24436
24439
24443
24447
24449
24449
24456
24462
24463
24468
24470
24474
24480
24485
24491
24491
24496
24497
24499
24504
24509
24515
24518
24519
24522
24525
24528
24533
24535
24539
24544
24548
24548
24553
24557
24559
24566
24569
24570
24571
24574
24576
24583
24586
24591
24593
24598
24604
24606
24611
24617
24622
24623
24623
24626
24626
24627
24635
24635
24640
24644
24650
24654
24656
24660
24665
24669
24670
24673
24676
24683
24688
24693
24696
24698
24703
24705
24712
24713
24717
24722
24724
24729
24730
24731
24734
24737
24742
24744
24746
24748
24749
24754
24758
24764
24769
24772
24773
24777
24781
24784
24790
24791
24796
24798
24799
24802
24810
24814
24816
24823
24826
24827
24828
24832
24837
24840
24847
24853
24854
24858
24865
24869
24872
24873
24874
24878
24881
24883
24884
24888
24890
24891
24894
24895
24899
24901
24903
24906
24906
24910
24914
24916
24918
24921
24924
24927
24929
24932
24935
24935
24939
24943
24947
24951
24953
24954
24955
24961
24964
24966
24971
24972
24976
24980
24983
24985
24991
24993
25000
25000
25003
25007
25010
25017
25021
25023
25027
25030
25034
25036
25039
25043
25047
25049
25052
25052
25055
25060
25061
25062
25067
25074
25076
25079
25080
25081
25083
25088
25091
25097
25097
25101
25101
25103
25107
25111
25113
25115
25120
25122
25123
25127
25131
25133
25140
25143
25145
25145
25146
25148
25150
25152
25156
25158
25165
25168
25169
25170
25172
25174
25177
25184
25185
25189
25193
25196
25201
25202
25206
25208
25214
25218
25221
25223
25227
25229
25230
25231
25235
25237
25240
25241
25243
25245
25248
25253
25255
25258
25260
25262
25266
25268
25271
25273
25274
25278
25280
25283
25285
25286
25288
25293
25294
25298
25299
25302
25305
25308
25313
25317
25325
25327
25330
25332
25333
25338
25340
25340
25342
25345
25346
25347
25351
25352
25356
25357
25361
25368
25371
25375
25378
25383
25385
25388
25389
25392
25395
25398
25404
25406
25409
25411
25416
25420
25423
25428
25429
25430
25433
25436
25439
25442
25442
25446
25449
25452
25455
25456
25458
25459
25461
25462
25465
25465
25469
25472
25475
25483
25486
25491
25495
25498
25501
25506
25507
25510
25513
25515
25518
25524
25529
25535
25537
25540
25542
25548
25551
25552
25555
25559
25559
25561
25563
25566
25571
25575
25578
25582
25585
25588
25589
25591
25592
25594
25597
25600
25603
25607
25611
25614
25617
25619
25622
25623
25625
25628
25632
25632
25636
25636
25638
25641
25646
25648
25652
25658
25660
25665
25668
25674
25677
25680
25685
25689
25694
25697
25702
25710
25714
25720
25721
25727
25729
25730
25730
25738
25745
25754
25762
25763
25766
25769
25772
25775
25779
25783
25787
25789
25791
25793
25796
25798
25805
25808
25809
25809
25811
25812
25815
25820
25823
25824
25824
25825
25829
25833
25838
25844
25848
25850
25855
25858
25861
25862
25867
25870
25874
25874
25878
25881
25885
25890
25895
25897
25901
25903
25908
25911
25913
25916
25921
25927
25928
25930
25934
25939
25943
25947
25950
25956
25961
25965
25966
25968
25969
25976
25981
25983
25989
25991
25993
25994
25995
26000
26007
26010
26013
26018
26027
26029
26032
26037
26041
26048
26051
26055
26059
26063
26069
26072
26076
26078
26079
26080
26082
26083
26092
26094
26094
26097
26099
26101
26103
26107
26110
26112
26114
26118
26120
26122
26123
26127
26131
26134
26138
26143
26148
26154
26157
26159
26164
26164
26170
26174
26177
26178
26185
26187
26191
26197
26200
26204
26205
26208
26210
26212
26212
26213
26218
26222
26225
26230
26232
26232
26237
26238
26242
26245
26249
26255
26258
26262
26263
26269
26274
26279
26285
26286
26288
26290
26292
26297
26302
26304
26305
26306
26307
26309
26315
26315
26321
26321
26323
26324
26326
26330
26334
26339
26341
26343
26346
26350
26351
26351
26355
26358
26360
26362
26363
26366
26369
26371
26372
26372
26373
26377
26379
26380
26383
26384
26385
26385
26390
26395
26399
26402
26404
26406
26407
26411
26413
26417
26423
26426
26428
26433
26441
26441
26443
26444
26447
26449
26453
26455
26459
26462
26463
26465
26468
26474
26477
26481
26488
26490
26490
26493
26497
26501
26506
26510
26512
26513
26514
26516
26522
26527
26528
26533
26534
26537
26538
26545
26551
26552
26557
26560
26561
26566
26569
26571
26574
26575
26578
26579
26580
26584
26586
26591
26595
26600
26603
26606
26610
26613
26614
26621
26625
26629
26634
26636
26638
26640
26643
26646
26651
26653
26656
26660
26662
26667
26672
26679
26681
26682
26685
26693
26696
26700
26704
26710
26715
26719
26721
26723
26729
26734
26737
26738
26740
26745
26752
26754
26755
26757
26762
26765
26772
26774
26779
26782
26783
26785
26788
26789
26792
26799
26801
26806
26808
26814
26817
26819
26821
26823
26830
26832
26835
26836
26836
26842
26843
26847
26850
26853
26857
26860
26862
26865
26870
26873
26875
26881
26885
26888
26891
26891
26893
26895
26899
26905
26907
26909
26913
26915
26918
26921
26922
26922
26922
26928
26931
26931
26934
26938
26938
26939
26942
26945
26947
26953
26954
26956
26960
26965
26968
26972
26974
26979
26982
26986
26988
26990
26991
26996
27002
27003
27009
27011
27013
27015
27015
27018
27020
27021
27023
27027
27027
27030
27034
27035
27040
27042
27045
27051
27054
27056
27060
27062
27063
27067
27070
27074
27079
27079
27081
27084
27087
27088
27093
27094
27097
27100
27105
27106
27110
27114
27119
27125
27128
27131
27132
27143
27146
27148
27152
27158
27160
27162
27167
27169
27172
27177
27180
27184
27186
27191
27194
27196
27198
27199
27201
27202
27203
27205
27210
27212
27216
27219
27220
27222
27223
27227
27229
27231
27236
27239
27240
27246
27251
27253
27257
27261
27263
27265
27268
27269
27271
27274
27276
27280
27282
27285
27288
27291
27293
27298
27300
27301
27301
27303
27307
27311
27315
27322
27326
27329
27332
27334
27337
27341
27346
27351
27354
27356
27356
27359
27361
27364
27365
27368
27371
27373
27376
27378
27378
27379
27381
27383
27385
27386
27389
27391
27397
27401
27402
27407
27411
27414
27417
27421
27422
27423
27426
27430
27433
27435
27440
27444
27447
27448
27450
27454
27457
27460
27466
27473
27477
27480
27484
27486
27490
27491
27493
27494
27498
27502
27502
27505
27507
27510
27512
27515
27520
27520
27524
27529
27530
27535
27536
27540
27545
27549
27551
27553
27557
27557
27561
27567
27572
27572
27572
27578
27580
27583
27590
27595
27595
27600
27602
27608
27610
27610
27614
27615
27622
27625
27627
27629
27634
27635
27640
27645
27652
27654
27656
27662
27668
27672
27674
27678
27682
27686
27691
27692
27694
27697
27699
27702
27704
27705
27710
27716
27719
27721
27723
27725
27731
27736
27739
27739
27740
27745
27747
27750
27751
27754
27759
27761
27763
27767
27770
27774
27778
27781
27785
27786
27791
27792
27795
27799
27801
27803
27806
27808
27810
27813
27819
27821
27825
27828
27832
27836
27843
27845
27848
27852
27855
27859
27859
27863
27864
27866
27866
27869
27871
27872
27878
27882
27885
27885
27888
27888
27889
27895
27898
27900
27906
27909
27911
27917
27918
27919
27922
27924
27927
27931
27934
27936
27942
27945
27949
27950
27956
27959
27961
27964
27967
27972
27977
27979
27982
27982
27985
27987
27989
27992
27995
27998
28002
28003
28006
28008
28013
28014
28018
28020
28023
28025
28030
28032
28034
28039
28040
28042
28044
28045
28049
28055
28062
28065
28071
28077
28079
28084
28089
28091
28093
28095
28098
28105
28107
28110
28115
28119
28123
28124
28129
28132
28134
28135
28138
28139
28141
28145
28147
28150
28151
28155
28157
28160
28162
28164
28166
28168
28173
28174
28178
28180
28186
28190
28192
28197
28203
28204
28209
28210
28215
28219
28223
28228
28233
28234
28236
28239
28240
28242
28246
28247
28250
28254
28257
28261
28264
28267
28273
28277
28279
28281
28283
28285
28288
28291
28293
28296
28297
28301
28304
28308
28309
28315
28318
28319
28322
28325
28326
28326
28330
28336
28339
28344
28348
28349
28351
28354
28356
28356
28358
28358
28359
28360
28363
28364
28366
28370
28372
28376
28380
28382
28387
28392
28395
28396
28398
28401
28404
28410
28413
28415
28421
28424
28426
28428
28430
28432
28435
28437
28445
28448
28453
28454
28460
28461
28466
28468
28472
28475
28477
28480
28485
28488
28492
28495
28496
28499
28503
28505
28507
28511
28516
28519
28524
28527
28529
28532
28534
28536
28539
28542
28543
28543
28545
28551
28555
28557
28559
28564
28566
28568
28569
28571
28573
28573
28575
28577
28578
28581
28582
28585
28594
28594
28594
28596
28598
28603
28606
28610
28612
28617
28618
28620
28623
28625
28627
28629
28631
28634
28634
28636
28642
28644
28651
28652
28654
28659
28661
28664
28665
28669
28672
28675
28678
28683
28686
28687
28688
28689
28693
28698
28698
28699
28705
28708
28710
28715
28719
28719
28721
28721
28726
28726
28728
28730
28736
28738
28740
28746
28746
28752
28752
28754
28758
28761
28764
28766
28768
28770
28771
28775
28779
28779
28782
28785
28785
28787
28791
28792
28796
28800
28805
28805
28806
28808
28814
28816
28818
28818
28823
28827
28830
28834
28836
28838
28841
28843
28843
28848
28849
28850
28854
28857
28859
28860
28862
28865
28866
28868
28872
28876
28878
28880
28881
28888
28890
28896
28898
28900
28902
28903
28907
28909
28916
28920
28922
28925
28927
28931
28934
28940
28941
28942
28945
28948
28950
28951
28954
28955
28958
28962
28965
28967
28973
28977
28980
28983
28986
28987
28992
28993
28996
29000
29005
29007
29010
29010
29010
29015
29022
29026
29027
29030
29034
29036
29037
29041
29046
29047
29053
29053
29058
29061
29064
29066
29070
29073
29075
29078
29080
29084
29088
29093
29093
29094
29095
29096
29096
29097
29101
29103
29108
29110
29113
29116
29120
29125
29129
29133
29137
29140
29141
29145
29149
29153
29156
29160
29161
29162
29166
29169
29175
29183
29187
29189
29192
29192
29196
29197
29200
29203
29207
29209
29211
29217
29220
29222
29222
29225
29231
29236
29240
29245
29248
29250
29252
29253
29258
29258
29260
29264
29266
29266
29270
29274
29278
29283
29284
29287
29289
29295
29296
29301
29306
29306
29312
29314
29317
29319
29323
29326
29329
29332
29335
29335
29337
29344
29346
29348
29351
29355
29356
29356
29358
29359
29361
29366
29369
29371
29375
29376
29381
29384
29388
29392
29397
29398
29398
29404
29406
29408
29411
29413
29416
29418
29421
29423
29425
29427
29431
29435
29438
29438
29439
29440
29440
29444
29447
29449
29450
29453
29455
29459
29461
29467
29471
29473
29477
29483
29485
29488
29490
29492
29494
29499
29504
29507
29510
29514
29514
29518
29520
29526
29529
29531
29533
29536
29539
29542
29546
29551
29552
29556
29560
29566
29567
29570
29575
29577
29578
29578
29579
29581
29583
29585
29588
29590
29596
29598
29603
29604
29608
29609
29617
29625
29625
29630
29635
29641
29641
29644
29644
29646
29648
29651
29655
29659
29659
29659
29664
29667
29667
29668
29673
29676
29678
29682
29686
29689
29691
29693
29694
29701
29703
29705
29705
29708
29711
29712
29718
29719
29725
29726
29728
29731
29733
29738
29740
29742
29744
29746
29747
29751
29754
29757
29761
29765
29766
29768
29770
29770
29772
29774
29778
29784
29787
29792
29797
29799
29803
29806
29814
29816
29818
29824
29828
29831
29832
29835
29840
29846
29853
29856
29858
29861
29861
29863
29864
29868
29870
29872
29876
29880
29882
29885
29886
29892
29895
29897
29900
29903
29904
29906
29908
29910
29913
29917
29921
29924
29926
29928
29932
29938
29941
29943
29946
29949
29953
29954
29955
29959
29961
29961
29963
29965
29970
29972
29973
29974
29976
29979
29981
29986
29989
29991
29993
29995
29999
30002
30007
30009
30010
30011
30013
30016
30016
30016
30018
30021
30023
30023
30023
30024
30025
30028
30032
30033
30038
30042
30044
30048
30050
30050
30051
30056
30059
30061
30064
30066
30072
30075
30078
30081
30083
30084
30088
30091
30095
30100
30102
30107
30113
30114
30120
30122
30126
30129
30130
30131
30135
30138
30139
30140
30144
30147
30147
30149
30152
30153
30155
30158
30160
30163
30167
30171
30173
30175
30179
30179
30180
30181
30184
30185
