0
4
7
10
14
19
23
26
29
34
37
42
45
49
52
54
55
58
62
65
69
74
78
82
86
88
95
97
100
103
107
108
114
118
121
124
128
130
134
139
145
147
151
152
157
159
160
164
171
174
181
184
189
192
193
194
198
203
204
207
209
216
220
226
229
234
237
238
241
243
248
248
253
254
259
262
262
263
267
270
274
276
279
281
283
289
294
296
298
305
309
311
311
316
317
322
326
333
333
336
338
343
345
349
352
354
359
362
367
371
375
377
381
384
384
384
387
389
393
395
398
403
406
409
410
411
414
415
419
420
421
422
425
428
432
434
436
440
444
448
449
451
455
457
459
462
467
472
475
478
479
482
485
487
488
490
491
492
496
500
503
505
507
509
511
514
515
520
522
525
530
537
543
545
552
555
559
562
569
571
572
572
580
581
584
586
589
595
602
608
610
615
616
620
624
626
631
632
634
637
643
644
646
647
647
651
655
659
661
666
670
676
679
681
685
689
693
696
697
701
705
710
711
711
714
715
718
720
721
723
725
730
734
736
739
740
743
749
753
757
759
759
759
761
762
764
766
768
773
775
780
785
789
794
794
795
800
806
807
812
817
819
824
826
829
832
834
838
839
843
846
849
855
857
860
862
865
867
873
877
882
886
890
894
898
899
903
906
908
912
915
918
923
926
928
930
936
939
943
952
954
956
960
963
964
969
971
975
981
984
984
989
992
996
998
999
1000
1001
1002
1003
1006
1007
1012
1012
1015
1018
1019
1024
1030
1032
1040
1043
1047
1049
1053
1057
1061
1066
1072
1074
1077
1080
1084
1089
1092
1092
1094
1095
1097
1103
1105
1113
1118
1123
1127
1132
1136
1138
1140
1141
1144
1148
1153
1155
1160
1163
1166
1169
1173
1176
1176
1177
1178
1180
1182
1183
1186
1187
1190
1192
1194
1195
1200
1202
1203
1206
1212
1215
1219
1220
1223
1226
1227
1230
1234
1237
1240
1242
1249
1255
1257
1262
1264
1269
1271
1272
1274
1278
1282
1289
1291
1293
1299
1301
1304
1308
1311
1316
1317
1318
1322
1323
1325
1328
1329
1331
1333
1334
1335
1342
1344
1347
1350
1352
1356
1356
1357
1358
1363
1366
1371
1374
1378
1385
1387
1391
1394
1395
1398
1401
1405
1408
1410
1415
1417
1422
1426
1428
1434
1438
1441
1441
1443
1447
1450
1455
1457
1459
1464
1467
1469
1472
1474
1477
1482
1486
1487
1490
1491
1494
1495
1496
1500
1502
1504
1504
1505
1507
1512
1516
1518
1521
1524
1526
1527
1529
1530
1533
1537
1542
1546
1549
1551
1552
1555
1559
1559
1562
1567
1568
1571
1575
1579
1582
1586
1588
1591
1592
1596
1599
1600
1605
1607
1608
1610
1611
1615
1619
1623
1624
1626
1629
1632
1634
1637
1640
1645
1649
1653
1655
1655
1658
1659
1659
1662
1667
1669
1670
1673
1676
1680
1683
1687
1690
1691
1696
1697
1699
1702
1705
1711
1714
1718
1728
1731
1738
1742
1747
1748
1751
1752
1755
1759
1761
1764
1768
1771
1774
1776
1776
1781
1782
1783
1785
1787
1792
1794
1797
1802
1804
1809
1813
1815
1818
1820
1823
1823
1824
1827
1831
1834
1835
1837
1837
1844
1848
1849
1856
1862
1865
1865
1868
1870
1873
1875
1878
1881
1883
1884
1888
1892
1897
1901
1906
1909
1914
1918
1921
1923
1925
1934
1939
1943
1945
1948
1953
1958
1959
1961
1961
1965
1972
1972
1979
1984
1986
1987
1987
1993
1995
1996
2001
2004
2010
2011
2015
2019
2023
2027
2031
2031
2033
2033
2033
2035
2037
2042
2042
2044
2049
2051
2054
2057
2062
2063
2069
2070
2073
2078
2081
2084
2087
2087
2087
2088
2093
2096
2097
2100
2101
2103
2104
2109
2114
2115
2118
2122
2123
2126
2131
2136
2142
2143
2146
2148
2153
2156
2160
2166
2167
2172
2178
2182
2187
2192
2195
2197
2200
2202
2203
2207
2209
2210
2214
2218
2220
2222
2229
2236
2242
2247
2251
2253
2258
2263
2268
2276
2279
2280
2281
2283
2285
2289
2291
2294
2296
2300
2302
2304
2304
2306
2310
2316
2318
2320
2323
2330
2333
2335
2338
2342
2346
2349
2352
2357
2361
2364
2367
2367
2370
2371
2375
2376
2381
2384
2389
2394
2396
2401
2403
2407
2409
2412
2415
2421
2423
2426
2429
2435
2437
2443
2445
2447
2449
2450
2454
2457
2462
2467
2471
2474
2475
2477
2480
2482
2485
2487
2489
2490
2493
2496
2500
2500
2506
2511
2516
2519
2521
2522
2526
2530
2533
2535
2536
2538
2541
2542
2543
2545
2547
2551
2554
2560
2566
2572
2574
2580
2584
2585
2585
2588
2591
2593
2596
2598
2602
2604
2605
2611
2616
2616
2617
2619
2619
2621
2625
2632
2635
2636
2637
2641
2645
2648
2652
2654
2656
2660
2668
2672
2677
2683
2684
2687
2693
2696
2699
2701
2702
2704
2709
2710
2716
2718
2718
2720
2723
2726
2728
2730
2733
2734
2740
2743
2746
2747
2752
2755
2762
2765
2766
2767
2770
2770
2775
2781
2785
2792
2793
2794
2798
2799
2800
2805
2807
2812
2814
2817
2819
2821
2822
2825
2831
2833
2836
2840
2843
2847
2850
2851
2851
2853
2855
2857
2862
2863
2871
2873
2874
2877
2882
2888
2888
2890
2895
2899
2901
2902
2906
2908
2916
2918
2921
2923
2926
2928
2932
2934
2935
2939
2943
2946
2951
2956
2957
2959
2966
2972
2979
2983
2983
2985
2989
2992
2996
2999
3000
3002
3006
3009
3012
3014
3016
3020
3024
3027
3031
3033
3034
3042
3047
3049
3050
3051
3056
3059
3059
3062
3063
3069
3070
3072
3075
3078
3079
3081
3085
3088
3091
3092
3093
3099
3104
3112
3116
3118
3123
3126
3127
3130
3134
3137
3139
3142
3144
3146
3147
3151
3154
3164
3169
3171
3173
3178
3182
3187
3188
3190
3196
3199
3203
3204
3206
3211
3215
3219
3219
3222
3225
3230
3232
3237
3238
3241
3243
3246
3249
3252
3252
3260
3262
3263
3266
3271
3272
3274
3277
3279
3281
3285
3288
3292
3292
3301
3304
3305
3306
3309
3311
3313
3315
3316
3317
3320
3322
3327
3329
3331
3333
3337
3339
3345
3346
3348
3350
3350
3353
3355
3359
3362
3363
3368
3370
3374
3376
3378
3381
3385
3390
3394
3396
3399
3400
3403
3407
3410
3415
3418
3423
3427
3427
3431
3431
3435
3438
3439
3443
3443
3444
3447
3449
3453
3457
3464
3468
3470
3475
3478
3480
3485
3487
3492
3496
3498
3500
3503
3507
3509
3509
3515
3520
3522
3524
3529
3532
3533
3534
3534
3537
3539
3540
3541
3543
3548
3550
3552
3557
3560
3563
3566
3567
3568
3572
3575
3575
3579
3582
3585
3587
3590
3593
3596
3598
3601
3603
3610
3613
3617
3621
3623
3626
3629
3629
3632
3640
3644
3646
3646
3651
3653
3654
3657
3657
3666
3670
3671
3676
3677
3679
3680
3683
3690
3691
3694
3696
3697
3702
3707
3708
3714
3714
3717
3722
3723
3724
3725
3729
3733
3739
3744
3748
3751
3755
3758
3766
3770
3773
3777
3782
3785
3788
3793
3797
3800
3801
3802
3803
3806
3809
3812
3815
3820
3821
3824
3825
3829
3835
3837
3840
3844
3845
3847
3848
3852
3852
3853
3857
3860
3865
3868
3869
3873
3875
3877
3881
3884
3888
3896
3898
3904
3907
3911
3914
3916
3918
3923
3927
3928
3929
3933
3938
3941
3942
3943
3946
3948
3952
3956
3957
3961
3964
3968
3971
3973
3974
3979
3982
3983
3987
3993
4000
4000
4001
4004
4010
4011
4012
4016
4019
4020
4024
4027
4030
4032
4039
4040
4042
4045
4048
4049
4050
4053
4059
4062
4065
4071
4071
4075
4078
4080
4084
4086
4090
4092
4095
4099
4099
4101
4104
4105
4109
4114
4116
4118
4119
4121
4121
4124
4130
4133
4137
4141
4143
4145
4146
4150
4153
4157
4158
4159
4166
4167
4169
4173
4178
4183
4187
4189
4193
4194
4196
4197
4202
4205
4208
4209
4211
4214
4217
4221
4232
4233
4237
4240
4244
4244
4247
4253
4255
4257
4259
4264
4267
4273
4278
4280
4280
4284
4287
4288
4293
4298
4302
4305
4310
4312
4313
4316
4320
4325
4328
4333
4334
4335
4338
4341
4342
4343
4344
4344
4347
4351
4353
4357
4358
4362
4367
4368
4370
4372
4374
4377
4382
4383
4387
4392
4397
4399
4404
4406
4414
4414
4418
4421
4427
4428
4432
4435
4436
4442
4442
4444
4450
4455
4458
4462
4462
4465
4468
4473
4476
4477
4479
4483
4485
4486
4486
4489
4496
4498
4501
4504
4507
4510
4513
4515
4519
4522
4525
4528
4533
4540
4543
4546
4546
4547
4551
4551
4555
4555
4559
4563
4567
4569
4572
4575
4577
4582
4586
4588
4591
4592
4594
4596
4597
4601
4603
4604
4607
4612
4614
4616
4620
4624
4626
4628
4631
4635
4639
4640
4643
4646
4649
4653
4657
4660
4662
4663
4666
4668
4671
4673
4677
4682
4683
4685
4689
4692
4696
4701
4704
4707
4711
4712
4713
4716
4717
4720
4723
4725
4728
4733
4737
4740
4743
4743
4747
4750
4755
4759
4760
4763
4765
4766
4769
4775
4778
4780
4781
4785
4785
4785
4790
4790
4799
4801
4805
4807
4809
4811
4812
4815
4817
4819
4822
4828
4831
4835
4840
4841
4845
4848
4851
4852
4854
4856
4859
4860
4863
4865
4870
4873
4878
4880
4884
4886
4887
4891
4895
4898
4899
4902
4907
4912
4914
4916
4920
4925
4926
4930
4937
4940
4944
4948
4951
4955
4959
4959
4964
4966
4972
4973
4974
4977
4977
4980
4981
4985
4991
4992
4993
4996
5001
5003
5006
5007
5009
5011
5013
5017
5019
5022
5024
5027
5029
5031
5034
5039
5043
5043
5045
5046
5048
5053
5054
5058
5059
5062
5063
5065
5066
5070
5073
5076
5077
5081
5083
5087
5089
5092
5093
5099
5099
5101
5107
5116
5118
5119
5120
5128
5132
5134
5136
5138
5141
5143
5145
5147
5151
5157
5159
5163
5166
5170
5173
5174
5178
5183
5187
5192
5192
5193
5197
5199
5202
5202
5204
5206
5219
5219
5220
5221
5222
5224
5229
5231
5237
5242
5246
5248
5250
5255
5256
5258
5259
5263
5267
5272
5277
5280
5282
5285
5285
5290
5293
5297
5301
5301
5305
5309
5310
5310
5312
5313
5317
5320
5322
5322
5326
5327
5330
5331
5333
5336
5340
5342
5343
5348
5349
5353
5355
5358
5363
5364
5366
5369
5375
5375
5379
5386
5388
5393
5399
5404
5407
5409
5411
5416
5420
5423
5425
5431
5433
5434
5435
5436
5440
5442
5445
5447
5448
5448
5451
5451
5453
5455
5461
5462
5465
5472
5472
5477
5480
5481
5482
5487
5490
5491
5491
5493
5496
5499
5505
5507
5511
5512
5517
5520
5523
5526
5530
5531
5536
5537
5540
5540
5541
5545
5549
5550
5554
5556
5560
5563
5567
5572
5576
5576
5579
5582
5586
5590
5595
5597
5599
5604
5606
5609
5612
5614
5618
5621
5626
5633
5635
5640
5645
5648
5651
5658
5660
5662
5663
5663
5665
5668
5671
5676
5681
5684
5687
5687
5689
5691
5693
5698
5700
5702
5705
5708
5711
5715
5717
5721
5724
5729
5730
5737
5739
5741
5746
5749
5752
5755
5760
5761
5765
5770
5774
5777
5780
5782
5783
5785
5789
5793
5796
5798
5801
5802
5804
5805
5805
5809
5810
5814
5816
5819
5821
5825
5830
5838
5840
5841
5845
5849
5853
5856
5857
5860
5862
5864
5866
5869
5869
5876
5878
5885
5888
5890
5892
5895
5901
5904
5906
5910
5911
5912
5920
5921
5925
5929
5932
5933
5936
5938
5942
5945
5946
5949
5951
5952
5957
5962
5965
5966
5969
5973
5977
5981
5985
5988
5996
5996
5997
6000
6000
6001
6003
6005
6009
6012
6014
6018
6020
6024
6027
6031
6031
6034
6036
6037
6038
6040
6041
6043
6045
6047
6048
6051
6055
6058
6060
6064
6065
6066
6068
6072
6074
6078
6083
6084
6085
6086
6088
6091
6095
6095
6098
6101
6105
6107
6109
6112
6112
6117
6120
6121
6123
6127
6128
6133
6136
6136
6140
6142
6143
6146
6146
6151
6153
6155
6158
6161
6166
6168
6170
6174
6175
6178
6181
6183
6188
6189
6194
6199
6203
6204
6211
6212
6212
6215
6217
6219
6225
6234
6236
6237
6241
6246
6248
6250
6253
6254
6255
6256
6259
6261
6262
6264
6268
6272
6276
6279
6282
6285
6285
6288
6293
6296
6300
6305
6307
6309
6310
6310
6311
6315
6326
6334
6336
6337
6340
6345
6349
6349
6350
6352
6355
6358
6360
6361
6364
6369
6371
6372
6373
6375
6376
6378
6381
6383
6384
6386
6390
6392
6393
6395
6397
6398
6403
6409
6412
6415
6418
6421
6424
6426
6429
6435
6438
6440
6442
6445
6448
6449
6452
6455
6457
6460
6464
6468
6469
6470
6472
6474
6478
6480
6483
6485
6487
6493
6495
6498
6498
6500
6502
6505
6506
6510
6511
6515
6517
6520
6523
6527
6533
6543
6545
6550
6551
6554
6555
6556
6559
6561
6563
6567
6573
6577
6581
6586
6588
6588
6592
6596
6598
6602
6602
6603
6604
6605
6608
6610
6616
6618
6623
6628
6630
6630
6630
6634
6635
6636
6641
6645
6648
6653
6656
6659
6661
6663
6664
6668
6670
6672
6676
6678
6680
6684
6684
6688
6690
6694
6698
6701
6704
6705
6710
6711
6713
6718
6721
6725
6725
6727
6731
6735
6737
6739
6740
6742
6744
6744
6747
6748
6751
6756
6759
6762
6767
6772
6772
6775
6775
6780
6783
6785
6787
6789
6791
6797
6800
6805
6808
6811
6812
6813
6814
6819
6823
6824
6826
6826
6827
6830
6833
6834
6835
6837
6842
6842
6846
6853
6854
6855
6859
6861
6862
6863
6865
6866
6870
6876
6880
6884
6889
6890
6891
6893
6898
6902
6905
6907
6910
6912
6912
6919
6922
6925
6929
6934
6938
6942
6946
6949
6951
6956
6957
6958
6960
6966
6970
6971
6979
6982
6987
6988
6993
6995
6999
7002
7005
7011
7013
7017
7020
7024
7028
7033
7037
7039
7043
7047
7052
7059
7062
7064
7065
7067
7070
7073
7078
7083
7088
7088
7091
7093
7094
7095
7097
7101
7103
7105
7110
7113
7115
7119
7125
7131
7133
7139
7144
7146
7148
7149
7152
7153
7154
7157
7161
7166
7169
7173
7176
7180
7185
7186
7188
7192
7196
7198
7201
7202
7206
7210
7212
7214
7218
7221
7225
7228
7229
7235
7235
7238
7242
7248
7253
7257
7261
7262
7266
7268
7271
7275
7280
7283
7285
7288
7289
7292
7292
7295
7300
7304
7306
7308
7309
7311
7316
7321
7324
7325
7329
7333
7337
7342
7345
7346
7349
7350
7352
7354
7358
7360
7362
7370
7374
7377
7379
7385
7388
7390
7392
7397
7403
7406
7408
7412
7412
7417
7419
7421
7422
7427
7433
7437
7438
7439
7442
7444
7445
7447
7448
7450
7454
7459
7463
7464
7467
7471
7473
7475
7479
7480
7483
7487
7492
7495
7497
7498
7499
7502
7502
7505
7510
7516
7518
7522
7529
7532
7535
7538
7540
7542
7544
7548
7553
7557
7560
7560
7562
7563
7568
7572
7574
7575
7577
7580
7582
7583
7585
7585
7588
7590
7590
7594
7595
7597
7599
7600
7603
7605
7613
7614
7616
7619
7624
7625
7630
7631
7633
7638
7642
7644
7646
7649
7651
7655
7655
7659
7662
7665
7671
7675
7680
7683
7686
7686
7692
7695
7698
7702
7708
7712
7713
7715
7718
7721
7726
7727
7735
7740
7741
7741
7745
7747
7752
7753
7756
7762
7767
7767
7770
7771
7773
7777
7782
7785
7787
7791
7794
7798
7800
7802
7802
7805
7809
7812
7813
7818
7820
7824
7828
7832
7834
7839
7842
7845
7851
7856
7856
7856
7860
7863
7867
7873
7873
7878
7883
7888
7891
7893
7896
7898
7899
7902
7907
7908
7909
7910
7910
7911
7915
7915
7915
7916
7917
7921
7922
7928
7930
7933
7935
7942
7946
7950
7953
7958
7961
7962
7964
7967
7970
7972
7974
7978
7981
7984
7986
7990
7992
7995
7997
7999
8002
8003
8008
8012
8017
8022
8024
8028
8028
8029
8032
8033
8036
8041
8043
8047
8049
8053
8058
8059
8063
8066
8067
8069
8073
8078
8080
8086
8089
8089
8092
8094
8098
8099
8104
8105
8107
8107
8109
8111
8114
8118
8121
8126
8130
8131
8134
8137
8137
8141
8144
8149
8153
8158
8159
8161
8164
8165
8167
8169
8170
8174
8178
8179
8180
8183
8185
8189
8190
8197
8201
8207
8211
8212
8215
8219
8221
8222
8226
8228
8229
8234
8238
8241
8245
8247
8248
8253
8255
8257
8264
8266
8269
8273
8274
8277
8279
8285
8285
8288
8290
8296
8300
8303
8306
8308
8310
8312
8323
8327
8328
8331
8335
8338
8341
8344
8348
8348
8351
8354
8358
8359
8363
8367
8368
8369
8370
8371
8372
8375
8379
8383
8386
8389
8392
8393
8395
8398
8401
8405
8409
8412
8413
8416
8417
8421
8423
8426
8429
8432
8432
8433
8437
8441
8443
8446
8449
8454
8457
8460
8465
8469
8474
8475
8479
8483
8487
8492
8495
8498
8505
8508
8509
8513
8516
8518
8521
8525
8528
8531
8534
8538
8540
8544
8546
8551
8554
8558
8558
8559
8562
8564
8567
8570
8576
8581
8584
8587
8590
8596
8599
8601
8601
8605
8606
8609
8611
8616
8620
8622
8626
8628
8628
8628
8630
8633
8638
8643
8645
8649
8652
8656
8657
8659
8662
8664
8665
8668
8670
8673
8676
8677
8680
8682
8685
8690
8696
8698
8701
8708
8711
8714
8715
8719
8721
8727
8728
8735
8738
8738
8741
8742
8745
8747
8750
8754
8754
8757
8758
8760
8763
8767
8771
8774
8778
8781
8787
8790
8793
8794
8797
8800
8802
8804
8806
8812
8816
8818
8819
8823
8827
8831
8835
8842
8843
8846
8849
8855
8856
8860
8864
8869
8871
8873
8879
8881
8885
8889
8893
8896
8899
8901
8903
8904
8906
8911
8914
8919
8922
8925
8926
8928
8929
8929
8930
8932
8936
8938
8941
8946
8949
8952
8956
8959
8963
8967
8974
8980
8984
8989
8990
8995
8998
9000
9004
9006
9008
9011
9013
9020
9022
9029
9030
9033
9037
9039
9045
9047
9050
9054
9056
9061
9066
9069
9073
9074
9076
9081
9084
9086
9089
9096
9099
9106
9108
9110
9113
9113
9114
9118
9120
9124
9126
9131
9133
9138
9142
9148
9150
9152
9153
9155
9160
9161
9167
9168
9174
9177
9181
9184
9187
9194
9196
9201
9205
9208
9209
9215
9217
9218
9225
9227
9229
9231
9235
9239
9242
9246
9249
9256
9261
9265
9266
9270
9275
9278
9280
9281
9285
9288
9291
9295
9300
9302
9305
9307
9307
9309
9313
9316
9316
9317
9320
9323
9325
9327
9331
9331
9336
9336
9338
9341
9346
9347
9351
9355
9358
9359
9364
9366
9374
9377
9377
9379
9379
9382
9384
9390
9393
9395
9398
9401
9402
9405
9406
9412
9417
9420
9427
9430
9433
9438
9441
9442
9446
9450
9453
9456
9463
9466
9469
9472
9475
9477
9479
9484
9488
9492
9497
9503
9505
9505
9505
9508
9510
9512
9513
9514
9518
9522
9525
9527
9531
9535
9536
9539
9542
9545
9548
9554
9555
9560
9561
9564
9567
9571
9575
9576
9579
9579
9583
9586
9588
9593
9595
9595
9598
9600
9604
9612
9617
9625
9628
9629
9634
9636
9638
9644
9647
9652
9654
9656
9659
9661
9662
9665
9667
9672
9677
9677
9677
9678
9683
9687
9693
9699
9705
9707
9710
9714
9717
9724
9725
9728
9732
9732
9736
9741
9746
9749
9752
9754
9755
9760
9761
9763
9767
9770
9773
9775
9776
9780
9783
9785
9788
9792
9795
9797
9800
9802
9804
9804
9807
9812
9814
9817
9820
9823
9826
9830
9831
9834
9837
9841
9846
9847
9851
9856
9864
9868
9871
9880
9883
9885
9887
9891
9892
9894
9897
9900
9902
9904
9907
9911
9913
9915
9917
9919
9924
9933
9935
9938
9940
9945
9946
9949
9950
9952
9957
9960
9962
9962
9965
9970
9973
9976
9978
9980
9982
9984
9984
9987
9989
9992
9994
9994
9996
10000
10000
10003
10006
10009
10010
10015
10021
10021
10022
10026
10031
10032
10033
10037
10037
10038
10043
10046
10049
10053
10057
10059
10062
10066
10069
10074
10075
10079
10082
10086
10093
10095
10096
10099
10101
10103
10105
10107
10109
10111
10116
10118
10120
10121
10122
10125
10125
10132
10135
10138
10139
10142
10147
10151
10156
10160
10162
10166
10168
10171
10177
10182
10184
10187
10191
10194
10197
10198
10202
10204
10206
10214
10219
10221
10223
10224
10227
10229
10231
10234
10234
10237
10239
10242
10244
10246
10248
10249
10251
10255
10260
10262
10265
10267
10273
10276
10280
10284
10285
10290
10294
10297
10301
10301
10303
10309
10312
10317
10321
10324
10326
10328
10330
10331
10333
10335
10339
10342
10346
10346
10350
10355
10358
10364
10365
10368
10370
10371
10376
10382
10383
10389
10392
10395
10399
10403
10405
10406
10407
10411
10418
10420
10425
10428
10432
10435
10440
10446
10452
10453
10455
10459
10460
10460
10464
10467
10474
10476
10480
10484
10488
10489
10494
10496
10499
10505
10508
10514
10515
10518
10522
10526
10530
10533
10533
10537
10537
10539
10540
10547
10551
10552
10555
10560
10561
10563
10566
10568
10570
10573
10575
10578
10579
10583
10584
10590
10591
10594
10597
10601
10604
10605
10607
10608
10610
10614
10616
10622
10627
10629
10632
10635
10637
10640
10644
10644
10647
10650
10657
10661
10664
10664
10668
10670
10674
10676
10681
10685
10690
10691
10694
10698
10699
10707
10710
10714
10718
10722
10726
10730
10735
10741
10748
10749
10753
10756
10761
10764
10766
10770
10771
10776
10777
10781
10784
10785
10788
10791
10795
10800
10802
10804
10807
10811
10815
10816
10819
10822
10824
10828
10831
10832
10835
10838
10841
10845
10849
10854
10858
10861
10865
10866
10869
10875
10878
10880
10884
10887
10894
10896
10901
10907
10908
10909
10915
10917
10922
10925
10927
10929
10933
10935
10938
10941
10945
10949
10952
10959
10961
10966
10968
10972
10973
10977
10979
10981
10984
10989
10994
10999
11004
11011
11013
11014
11017
11021
11022
11026
11028
11028
11029
11032
11036
11037
11042
11046
11047
11050
11052
11053
11059
11060
11064
11065
11069
11077
11083
11089
11093
11095
11104
11109
11112
11116
11116
11118
11120
11120
11122
11125
11127
11131
11138
11143
11144
11150
11155
11155
11159
11159
11160
11162
11168
11169
11169
11171
11171
11172
11176
11179
11181
11184
11190
11193
11196
11199
11201
11204
11207
11207
11213
11215
11216
11218
11220
11222
11225
11232
11234
11236
11237
11242
11246
11249
11251
11254
11256
11256
11258
11258
11259
11263
11267
11270
11273
11276
11279
11281
11282
11287
11289
11290
11293
11297
11301
11302
11306
11309
11310
11313
11317
11318
11322
11324
11324
11326
11329
11333
11336
11339
11340
11343
11346
11349
11352
11352
11354
11355
11360
11362
11364
11367
11368
11371
11376
11379
11383
11385
11391
11397
11403
11409
11417
11419
11423
11426
11427
11430
11430
11431
11433
11435
11436
11439
11444
11446
11449
11451
11456
11462
11465
11470
11471
11476
11477
11479
11484
11489
11492
11493
11497
11500
11501
11504
11509
11511
11514
11517
11518
11521
11525
11526
11530
11531
11532
11533
11535
11542
11543
11544
11548
11552
11552
11557
11561
11564
11566
11569
11572
11576
11576
11580
11582
11583
11586
11588
11591
11593
11593
11597
11600
11604
11607
11609
11610
11612
11614
11618
11620
11627
11633
11635
11637
11638
11642
11647
11651
11654
11657
11662
11664
11667
11671
11673
11676
11683
11685
11686
11689
11695
11696
11700
11702
11707
11709
11714
11717
11721
11725
11729
11731
11732
11735
11736
11739
11742
11744
11744
11745
11747
11754
11757
11759
11761
11763
11769
11774
11775
11780
11782
11789
11793
11795
11801
11804
11804
11810
11812
11815
11818
11822
11826
11830
11833
11833
11838
11843
11844
11846
11847
11852
11856
11858
11859
11861
11861
11865
11869
11871
11873
11877
11880
11884
11886
11891
11893
11893
11899
11901
11904
11907
11910
11915
11918
11920
11923
11926
11926
11933
11934
11937
11940
11941
11942
11942
11945
11952
11952
11954
11955
11960
11964
11965
11965
11968
11970
11976
11977
11981
11987
11993
11998
12005
12007
12007
12008
12010
12011
12014
12020
12021
12023
12023
12024
12028
12029
12029
12034
12037
12040
12043
12045
12046
12051
12052
12054
12058
12066
12073
12078
12081
12083
12085
12090
12098
12101
12102
12105
12110
12112
12113
12119
12121
12122
12125
12128
12132
12135
12138
12140
12142
12142
12148
12151
12154
12157
12158
12160
12161
12165
12168
12172
12176
12184
12187
12189
12192
12195
12197
12199
12200
12202
12203
12211
12219
12221
12222
12226
12231
12235
12240
12240
12242
12246
12246
12251
12253
12259
12261
12264
12265
12267
12269
12271
12277
12280
12283
12287
12293
12295
12296
12302
12306
12308
12310
12313
12315
12316
12318
12323
12325
12329
12332
12334
12338
12340
12344
12347
12350
12355
12360
12360
12365
12372
12374
12379
12381
12385
12389
12394
12394
12397
12401
12402
12404
12407
12410
12413
12414
12419
12424
12425
12428
12435
12438
12442
12443
12444
12448
12451
12455
12459
12461
12462
12466
12472
12473
12477
12481
12484
12484
12487
12489
12496
12500
12503
12505
12506
12510
12512
12515
12520
12522
12525
12525
12525
12530
12532
12533
12534
12537
12539
12544
12547
12553
12557
12559
12561
12562
12564
12568
12568
12569
12573
12575
12578
12578
12582
12586
12587
12587
12588
12594
12595
12597
12598
12601
12603
12604
12608
12611
12614
12618
12620
12620
12620
12624
12626
12630
12634
12638
12643
12646
12649
12653
12656
12659
12660
12661
12664
12670
12670
12673
12679
12681
12688
12690
12692
12695
12700
12704
12707
12709
12712
12712
12715
12717
12720
12721
12721
12722
12730
12734
12737
12740
12744
12752
12754
12757
12759
12759
12764
12766
12771
12772
12775
12777
12778
12783
12785
12786
12788
12794
12799
12799
12801
12803
12803
12804
12806
12808
12812
12816
12822
12828
12832
12835
12837
12840
12841
12843
12846
12848
12850
12853
12853
12855
12859
12865
12867
12868
12872
12877
12880
12881
12882
12885
12887
12891
12895
12900
12906
12910
12911
12912
12922
12924
12928
12931
12933
12937
12938
12939
12947
12952
12958
12963
12965
12967
12976
12978
12982
12985
12989
12991
12992
12996
13001
13007
13008
13013
13016
13019
13023
13031
13033
13036
13040
13045
13051
13056
13057
13062
13066
13070
13072
13074
13078
13084
13086
13088
13089
13091
13097
13100
13105
13107
13111
13113
13117
13121
13125
13127
13132
13137
13139
13141
13146
13148
13152
13156
13161
13164
13168
13170
13172
13176
13178
13180
13182
13183
13187
13195
13198
13202
13206
13211
13215
13217
13219
13221
13224
13229
13232
13234
13235
13239
13242
13244
13245
13250
13255
13259
13262
13265
13267
13269
13275
13276
13282
13283
13287
13291
13295
13296
13302
13305
13310
13312
13312
13316
13319
13320
13323
13325
13328
13329
13333
13337
13341
13346
13350
13352
13354
13358
13362
13365
13368
13371
13372
13376
13378
13379
13382
13385
13388
13394
13396
13401
13405
13407
13408
13410
13414
13415
13418
13421
13427
13429
13431
13434
13437
13438
13440
13443
13444
13444
13446
13448
13449
13453
13455
13458
13462
13466
13467
13471
13475
13476
13478
13481
13485
13489
13490
13493
13497
13499
13500
13504
13506
13507
13510
13513
13514
13516
13517
13521
13525
13530
13532
13533
13537
13541
13544
13545
13548
13549
13552
13556
13560
13564
13568
13570
13571
13573
13578
13579
13583
13586
13591
13595
13598
13599
13602
13604
13606
13609
13611
13615
13616
13619
13623
13627
13631
13633
13637
13639
13642
13646
13650
13653
13653
13656
13658
13660
13666
13668
13671
13674
13676
13679
13684
13685
13688
13690
13693
13700
13704
13707
13711
13713
13717
13718
13718
13721
13723
13724
13727
13728
13731
13735
13738
13745
13748
13751
13758
13759
13761
13764
13770
13770
13774
13779
13785
13790
13793
13795
13797
13800
13803
13806
13810
13814
13818
13819
13820
13820
13822
13826
13828
13831
13835
13844
13848
13852
13855
13857
13858
13859
13862
13867
13870
13871
13873
13877
13883
13889
13894
13896
13898
13899
13899
13902
13907
13908
13910
13912
13913
13915
13918
13925
13926
13928
13934
13937
13943
13948
13948
13951
13952
13955
13960
13962
13965
13968
13973
13976
13979
13981
13983
13989
13993
13997
13999
13999
14003
14003
14006
14012
14015
14017
14020
14022
14026
14026
14030
14032
14034
14041
14044
14046
14049
14053
14055
14058
14059
14062
14068
14070
14071
14072
14077
14079
14082
14086
14088
14091
14093
14094
14101
14106
14109
14111
14112
14112
14119
14127
14129
14131
14135
14140
14140
14143
14146
14149
14152
14155
14158
14162
14166
14171
14174
14177
14178
14182
14183
14187
14192
14194
14196
14201
14204
14207
14209
14211
14213
14216
14221
14227
14229
14229
14232
14235
14239
14243
14247
14248
14252
14254
14257
14258
14258
14259
14262
14265
14271
14275
14278
14281
14284
14286
14290
14294
14297
14298
14298
14299
14301
14307
14311
14314
14315
14318
14319
14319
14324
14329
14332
14336
14339
14343
14345
14352
14354
14359
14361
14364
14369
14373
14375
14377
14377
14377
14380
14382
14384
14387
14390
14394
14397
14403
14404
14407
14410
14412
14415
14417
14419
14423
14425
14427
14431
14434
14438
14443
14444
14447
14447
14453
14458
14460
14463
14467
14471
14472
14474
14477
14482
14485
14488
14490
14497
14500
14500
14501
14501
14503
14505
14508
14511
14513
14519
14521
14524
14525
14526
14530
14530
14534
14537
14540
14543
14545
14548
14551
14556
14559
14562
14565
14568
14576
14581
14583
14586
14589
14596
14598
14602
14605
14608
14611
14616
14619
14620
14623
14627
14629
14632
14634
14640
14646
14654
14657
14659
14664
14670
14671
14676
14679
14681
14683
14688
14691
14693
14695
14701
14703
14708
14712
14714
14715
14717
14721
14723
14726
14728
14730
14732
14735
14741
14743
14746
14748
14755
14757
14760
14763
14766
14768
14768
14773
14777
14783
14788
14792
14795
14797
14799
14802
14804
14807
14811
14814
14816
14819
14821
14824
14827
14829
14830
14831
14835
14839
14840
14846
14848
14852
14856
14859
14860
14861
14861
14862
14865
14867
14868
14872
14874
14877
14885
14889
14893
14899
14901
14905
14905
14905
14907
14910
14915
14920
14923
14925
14929
14933
14934
14936
14939
14945
14946
14950
14954
14957
14960
14965
14966
14971
14974
14975
14980
14983
14988
14990
14993
14999
15002
15005
15005
15013
15015
15021
15025
15028
15030
15035
15040
15042
15045
15050
15050
15053
15055
15060
15061
15067
15069
15071
15074
15076
15081
15083
15087
15090
15093
15096
15098
15105
15109
15111
15114
15119
15123
15126
15130
15130
15134
15141
15144
15147
15149
15151
15155
15159
15164
15165
15168
15171
15175
15179
15183
15183
15187
15190
15195
15196
15200
15203
15205
15208
15209
15210
15214
15216
15220
15223
15225
15227
15228
15230
15231
15234
15238
15238
15239
15241
15242
15244
15246
15248
15252
15253
15257
15260
15262
15267
15269
15271
15272
15277
15281
15284
15289
15291
15294
15297
15299
15302
15305
15306
15308
15317
15320
15322
15324
15329
15330
15333
15337
15340
15341
15343
15345
15348
15350
15350
15352
15356
15356
15358
15359
15362
15365
15367
15372
15374
15376
15381
15385
15385
15389
15395
15403
15404
15404
15408
15412
15415
15419
15425
15430
15439
15441
15447
15448
15451
15453
15454
15458
15459
15462
15466
15468
15470
15477
15481
15483
15487
15490
15494
15499
15500
15503
15505
15508
15513
15514
15514
15517
15520
15522
15523
15525
15528
15531
15535
15537
15543
15543
15545
15548
15553
15554
15556
15558
15561
15566
15569
15570
15571
15574
15576
15580
15583
15586
15591
15596
15597
15603
15604
15609
15610
15611
15613
15615
15618
15622
15622
15624
15626
15635
15636
15639
15642
15648
15653
15656
15659
15661
15662
15668
15671
15672
15677
15679
15682
15684
15686
15688
15695
15696
15698
15702
15706
15708
15709
15713
15718
15722
15727
15731
15734
15737
15739
15745
15746
15750
15754
15757
15759
15767
15770
15772
15774
15778
15784
15788
15791
15792
15795
15797
15799
15802
15805
15809
15813
15815
15818
15823
15826
15828
15828
15833
15834
15838
15841
15842
15845
15847
15851
15855
15855
15856
15859
15862
15865
15867
15871
15873
15878
15882
15883
15885
15889
15894
15898
15902
15904
15908
15911
15913
15918
15922
15922
15926
15931
15935
15937
15939
15942
15944
15949
15951
15954
15959
15964
15967
15968
15968
15972
15974
15977
15982
15984
15985
15990
15996
15999
16004
16008
16010
16015
16018
16021
16025
16031
16032
16032
16037
16038
16041
16042
16048
16050
16053
16054
16058
16063
16065
16070
16071
16072
16077
16077
16085
16086
16088
16089
16090
16091
16093
16096
16098
16100
16102
16105
16109
16112
16115
16119
16122
16126
16134
16136
16140
16144
16146
16146
16151
16155
16157
16160
16163
16169
16173
16174
16177
16180
16183
16186
16186
16191
16196
16198
16201
16204
16208
16210
16214
16219
16222
16226
16230
16236
16238
16241
16244
16246
16247
16250
16257
16262
16265
16269
16272
16276
16281
16284
16286
16289
16291
16293
16298
16300
16304
16307
16312
16315
16317
16320
16322
16322
16327
16330
16332
16335
16335
16340
16345
16346
16348
16349
16354
16359
16362
16364
16367
16370
16370
16372
16375
16376
16381
16384
16384
16386
16390
16397
16402
16404
16407
16408
16410
16414
16415
16420
16423
16426
16426
16428
16431
16432
16437
16441
16443
16444
16448
16453
16457
16461
16465
16466
16472
16478
16481
16482
16482
16487
16491
16492
16494
16495
16497
16500
16502
16503
16506
16509
16510
16514
16516
16518
16525
16528
16530
16530
16533
16535
16536
16538
16540
16544
16550
16554
16557
16560
16563
16563
16567
16569
16571
16574
16577
16581
16586
16591
16595
16599
16600
16601
16604
16605
16606
16612
16613
16615
16618
16620
16623
16627
16631
16635
16639
16642
16647
16650
16654
16659
16664
16664
16668
16670
16674
16677
16679
16681
16685
16688
16692
16698
16705
16705
16709
16712
16716
16718
16719
16721
16724
16728
16731
16733
16741
16742
16744
16746
16748
16753
16757
16760
16760
16764
16769
16771
16772
16773
16777
16781
16784
16786
16791
16795
16799
16801
16806
16811
16812
16815
16821
16826
16831
16834
16841
16841
16842
16847
16849
16851
16856
16862
16864
16866
16870
16872
16875
16879
16881
16882
16884
16889
16896
16897
16901
16905
16909
16913
16916
16919
16924
16926
16929
16935
16938
16940
16942
16945
16952
16953
16955
16958
16961
16967
16970
16973
16975
16980
16984
16989
16992
16999
16999
17004
17009
17013
17015
17018
17023
17024
17029
17030
17030
17034
17038
17042
17045
17047
17049
17054
17060
17064
17067
17068
17070
17076
17080
17083
17084
17089
17093
17097
17102
17104
17111
17114
17115
17117
17120
17124
17125
17127
17130
17131
17132
17136
17139
17142
17146
17147
17147
17147
17151
17153
17156
17158
17160
17161
17162
17165
17169
17170
17176
17179
17182
17184
17189
17194
17195
17198
17203
17205
17209
17211
17213
17218
17220
17221
17225
17229
17237
17241
17241
17244
17248
17252
17253
17256
17261
17264
17269
17271
17273
17275
17280
17283
17286
17289
17290
17292
17295
17298
17301
17302
17305
17307
17309
17315
17315
17318
17321
17324
17331
17334
17338
17341
17347
17349
17352
17354
17359
17363
17367
17369
17371
17373
17378
17383
17387
17388
17389
17392
17394
17396
17397
17402
17406
17407
17410
17411
17412
17415
17415
17417
17420
17424
17428
17428
17431
17435
17436
17441
17443
17445
17448
17450
17453
17454
17457
17463
17466
17470
17473
17474
17479
17481
17483
17490
17493
17495
17496
17499
17500
17505
17507
17511
17514
17517
17523
17524
17525
17528
17530
17532
17534
17536
17538
17540
17545
17547
17551
17553
17557
17559
17561
17563
17567
17569
17571
17577
17579
17582
17585
17589
17592
17594
17595
17598
17601
17602
17606
17608
17608
17611
17612
17615
17616
17622
17623
17626
17630
17635
17637
17641
17645
17649
17653
17657
17662
17664
17665
17668
17670
17675
17678
17684
17690
17693
17695
17698
17700
17702
17705
17707
17711
17713
17714
17721
17725
17727
17729
17733
17736
17737
17739
17744
17749
17753
17755
17757
17760
17763
17766
17770
17773
17778
17782
17785
17789
17794
17797
17799
17801
17806
17809
17815
17819
17821
17823
17826
17834
17837
17839
17842
17846
17847
17849
17852
17853
17855
17859
17860
17865
17870
17870
17871
17877
17882
17884
17887
17889
17889
17891
17892
17895
17898
17900
17904
17911
17916
17918
17921
17924
17928
17931
17933
17936
17941
17943
17943
17943
17946
17946
17949
17950
17951
17953
17954
17956
17957
17959
17960
17963
17964
17966
17971
17973
17975
17977
17978
17981
17982
17986
17990
17990
17993
17999
18000
18004
18004
18005
18008
18013
18016
18019
18023
18026
18028
18031
18040
18041
18045
18048
18050
18054
18060
18060
18064
18068
18070
18073
18076
18079
18082
18088
18093
18097
18101
18107
18111
18114
18117
18121
18123
18129
18132
18135
18137
18139
18145
18148
18151
18154
18157
18160
18165
18168
18170
18172
18176
18180
18184
18188
18192
18196
18199
18201
18203
18209
18211
18217
18220
18221
18223
18227
18231
18233
18237
18241
18246
18250
18251
18253
18259
18262
18263
18267
18269
18270
18274
18277
18280
18283
18287
18292
18296
18297
18298
18304
18309
18310
18312
18314
18319
18320
18322
18329
18331
18333
18334
18336
18337
18339
18342
18348
18351
18354
18355
18358
18359
18360
18362
18366
18368
18376
18377
18377
18377
18379
18380
18382
18384
18386
18390
18394
18396
18402
18407
18410
18412
18413
18414
18417
18421
18423
18428
18431
18435
18436
18439
18447
18449
18452
18457
18458
18459
18461
18465
18466
18469
18475
18476
18481
18484
18486
18487
18491
18491
18497
18498
18500
18505
18505
18508
18511
18515
18516
18522
18529
18530
18533
18536
18542
18546
18549
18551
18552
18556
18559
18562
18564
18566
18568
18569
18569
18573
18576
18580
18583
18583
18585
18591
18594
18596
18602
18604
18607
18611
18614
18617
18619
18620
18623
18629
18632
18632
18634
18639
18644
18647
18651
18654
18657
18660
18661
18663
18665
18666
18669
18675
18677
18680
18683
18688
18691
18694
18697
18699
18704
18705
18707
18707
18708
18711
18712
18715
18715
18717
18718
18719
18723
18728
18730
18735
18736
18738
18738
18745
18750
18755
18759
18762
18764
18766
18769
18772
18775
18780
18782
18785
18786
18788
18791
18796
18800
18803
18808
18811
18817
18820
18821
18822
18824
18825
18832
18839
18845
18849
18849
18854
18856
18858
18859
18862
18863
18865
18866
18871
18874
18877
18877
18880
18883
18888
18888
18890
18894
18900
18900
18901
18906
18911
18914
18919
18923
18925
18926
18931
18933
18933
18938
18943
18946
18950
18953
18954
18958
18966
18966
18966
18971
18972
18976
18980
18985
18990
18994
18997
18998
19000
19003
19008
19011
19017
19021
19024
19030
19032
19035
19037
19041
19045
19049
19052
19053
19056
19058
19064
19068
19073
19075
19079
19086
19087
19090
19092
19097
19099
19101
19105
19107
19107
19110
19115
19117
19122
19124
19127
19128
19131
19134
19134
19137
19139
19143
19145
19151
19152
19156
19158
19160
19161
19161
19168
19170
19172
19179
19183
19186
19188
19191
19195
19198
19200
19203
19205
19209
19211
19212
19214
19218
19223
19224
19228
19232
19234
19235
19239
19241
19244
19246
19250
19253
19255
19255
19261
19263
19264
19270
19273
19275
19277
19281
19284
19288
19291
19291
19292
19295
19296
19301
19305
19309
19313
19317
19318
19321
19323
19327
19330
19333
19334
19334
19340
19342
19343
19345
19347
19351
19355
19357
19359
19361
19365
19366
19371
19374
19375
19378
19380
19381
19382
19389
19395
19397
19400
19402
19410
19412
19415
19422
19426
19432
19436
19438
19443
19445
19447
19451
19457
19461
19462
19465
19469
19472
19473
19474
19477
19481
19482
19486
19487
19491
19494
19497
19501
19505
19508
19509
19512
19518
19524
19526
19531
19534
19536
19540
19543
19545
19546
19548
19552
19557
19560
19563
19564
19568
19572
19576
19580
19584
19587
19588
19591
19596
19599
19601
19605
19608
19611
19613
19616
19620
19625
19627
19630
19631
19633
19635
19636
19642
19645
19647
19650
19652
19657
19661
19665
19666
19669
19669
19672
19674
19677
19678
19682
19685
19687
19689
19693
19693
19697
19705
19706
19710
19711
19716
19722
19725
19728
19732
19737
19739
19740
19744
19746
19748
19752
19754
19755
19759
19764
19767
19770
19773
19778
19779
19781
19783
19786
19787
19792
19795
19803
19807
19810
19816
19818
19822
19824
19828
19832
19838
19843
19847
19851
19854
19855
19862
19866
19867
19873
19874
19874
19875
19880
19885
19888
19891
19895
19899
19902
19904
19907
19910
19913
19918
19918
19922
19927
19927
19931
19935
19936
19939
19941
19943
19946
19951
19953
19955
19959
19961
19966
19970
19972
19978
19982
19984
19986
19989
19990
19994
19996
20000
20002
20004
20006
20010
20015
20018
20026
20028
20031
20036
20039
20041
20044
20047
20048
20049
20052
20056
20059
20061
20065
20072
20073
20076
20081
20082
20086
20088
20093
20098
20102
20102
20105
20106
20108
20111
20113
20114
20116
20118
20124
20126
20128
20131
20135
20140
20143
20144
20147
20149
20152
20155
20158
20162
20167
20171
20176
20178
20180
20184
20186
20186
20187
20192
20194
20197
20203
20206
20208
20215
20219
20221
20225
20226
20227
20232
20234
20235
20237
20240
20245
20250
20253
20254
20254
20260
20264
20266
20268
20271
20275
20276
20280
20281
20284
20286
20287
20289
20290
20292
20297
20299
20301
20304
20305
20308
20311
20313
20317
20321
20322
20328
20334
20342
20346
20349
20353
20356
20359
20361
20363
20368
20370
20371
20378
20382
20387
20388
20391
20393
20397
20398
20398
20401
20404
20406
20408
20410
20414
20418
20421
20422
20425
20426
20428
20429
20431
20435
20436
20440
20440
20445
20448
20450
20453
20456
20457
20458
20460
20462
20466
20469
20469
20471
20472
20476
20479
20479
20481
20483
20486
20491
20491
20495
20497
20503
20503
20505
20511
20518
20520
20522
20525
20527
20529
20530
20536
20539
20542
20545
20548
20553
20554
20556
20561
20563
20564
20566
20573
20578
20585
20586
20586
20591
20592
20597
20599
20602
20605
20606
20608
20609
20615
20620
20622
20625
20627
20628
20629
20631
20634
20637
20640
20646
20649
20649
20651
20652
20654
20656
20656
20656
20660
20665
20668
20672
20677
20680
20685
20686
20687
20690
20694
20699
20700
20705
20708
20713
20716
20722
20724
20728
20730
20732
20734
20736
20739
20741
20741
20742
20746
20747
20750
20752
20757
20762
20764
20770
20773
20776
20782
20785
20789
20792
20794
20800
20809
20811
20814
20818
20823
20824
20827
20831
20833
20835
20838
20840
20842
20845
20847
20850
20853
20856
20858
20858
20860
20863
20865
20870
20873
20876
20880
20881
20883
20888
20890
20892
20895
20897
20902
20903
20905
20907
20912
20915
20921
20922
20925
20928
20930
20932
20934
20936
20940
20945
20945
20950
20952
20954
20956
20959
20961
20963
20964
20966
20972
20975
20978
20981
20981
20984
20985
20991
20996
20997
20998
20998
21001
21004
21007
21007
21009
21012
21019
21023
21025
21031
21032
21034
21036
21039
21041
21043
21049
21050
21050
21054
21058
21061
21063
21069
21074
21078
21080
21083
21085
21087
21088
21093
21094
21096
21097
21100
21103
21109
21109
21112
21116
21120
21124
21129
21135
21138
21140
21145
21147
21148
21151
21155
21159
21160
21165
21169
21177
21182
21184
21194
21198
21201
21201
21201
21203
21208
21211
21212
21214
21217
21219
21222
21226
21228
21234
21236
21238
21239
21242
21245
21249
21254
21256
21260
21265
21265
21271
21275
21278
21282
21282
21288
21292
21296
21298
21299
21302
21303
21306
21310
21314
21318
21320
21323
21329
21331
21333
21335
21335
21340
21341
21342
21344
21345
21346
21351
21353
21357
21360
21362
21366
21366
21374
21375
21379
21383
21385
21389
21393
21398
21402
21404
21407
21409
21415
21419
21419
21427
21428
21428
21429
21431
21436
21438
21439
21443
21447
21448
21450
21455
21457
21459
21461
21463
21466
21469
21474
21478
21481
21486
21488
21491
21496
21499
21502
21507
21513
21516
21519
21520
21523
21524
21528
21529
21536
21538
21541
21542
21543
21544
21545
21547
21552
21555
21555
21558
21561
21564
21566
21569
21571
21572
21576
21578
21579
21586
21588
21591
21594
21599
21601
21604
21606
21609
21612
21616
21619
21623
21627
21631
21634
21638
21641
21645
21646
21648
21651
21653
21657
21659
21662
21665
21667
21669
21673
21677
21678
21679
21683
21687
21691
21692
21696
21699
21704
21705
21707
21712
21717
21719
21722
21727
21730
21731
21733
21737
21741
21741
21743
21748
21748
21750
21753
21756
21759
21759
21761
21764
21765
21770
21773
21776
21778
21781
21783
21783
21786
21790
21796
21802
21803
21807
21813
21817
21822
21823
21826
21828
21829
21832
21834
21837
21842
21845
21848
21850
21855
21855
21858
21862
21865
21868
21875
21876
21878
21882
21887
21890
21895
21895
21896
21899
21902
21905
21909
21911
21913
21913
21914
21916
21918
21924
21927
21929
21933
21938
21939
21942
21944
21946
21950
21954
21957
21959
21961
21962
21968
21972
21976
21979
21983
21988
21993
21996
21997
22001
22006
22011
22015
22019
22021
22024
22027
22031
22031
22033
22034
22036
22038
22042
22045
22049
22055
22056
22060
22066
22069
22072
22077
22080
22084
22086
22087
22090
22093
22096
22099
22100
22103
22106
22108
22108
22112
22118
22124
22126
22127
22127
22133
22135
22137
22142
22145
22149
22154
22157
22160
22161
22163
22165
22168
22176
22182
22185
22189
22191
22196
22201
22202
22205
22207
22208
22217
22223
22227
22227
22228
22231
22234
22235
22237
22239
22243
22245
22249
22249
22249
22254
22258
22260
22262
22266
22266
22273
22279
22282
22286
22289
22294
22299
22304
22308
22308
22314
22319
22323
22326
22328
22329
22333
22337
22343
22344
22346
22348
22348
22352
22354
22361
22366
22368
22372
22378
22382
22384
22386
22390
22394
22397
22399
22405
22408
22412
22416
22418
22420
22423
22424
22426
22429
22432
22432
22433
22435
22439
22443
22447
22450
22455
22457
22462
22465
22468
22471
22473
22473
22474
22475
22480
22481
22484
22486
22491
22493
22495
22499
22500
22504
22506
22508
22513
22516
22520
22522
22524
22527
22532
22537
22540
22541
22547
22550
22551
22557
22560
22563
22569
22570
22572
22578
22582
22584
22586
22588
22589
22594
22597
22599
22599
22600
22602
22604
22607
22609
22613
22619
22624
22626
22628
22632
22636
22638
22641
22644
22645
22645
22646
22646
22647
22649
22651
22653
22658
22663
22668
22673
22675
22675
22675
22681
22684
22691
22694
22695
22699
22700
22703
22711
22712
22717
22719
22720
22721
22726
22729
22732
22735
22741
22742
22744
22747
22750
22755
22758
22760
22763
22767
22770
22775
22780
22784
22784
22789
22790
22796
22799
22802
22804
22807
22809
22811
22817
22818
22821
22827
22830
22832
22833
22838
22843
22845
22846
22849
22849
22851
22854
22855
22861
22864
22867
22871
22873
22878
22881
22884
22887
22893
22893
22897
22898
22905
22906
22911
22916
22918
22922
22929
22936
22939
22942
22943
22944
22945
22948
22951
22952
22953
22953
22959
22964
22966
22968
22972
22975
22979
22986
22990
22993
22994
22996
22997
22999
23000
23004
23007
23009
23010
23011
23013
23014
23018
23023
23026
23028
23030
23033
23036
23040
23041
23042
23046
23049
23051
23053
23055
23060
23063
23067
23067
23069
23074
23077
23081
23083
23083
23087
23093
23096
23102
23103
23104
23105
23108
23110
23115
23117
23118
23121
23127
23127
23131
23132
23138
23141
23144
23148
23156
23160
23163
23168
23169
23173
23177
23179
23183
23185
23185
23186
23192
23193
23197
23199
23201
23206
23212
23214
23216
23217
23220
23222
23226
23229
23233
23237
23239
23242
23245
23250
23254
23256
23259
23263
23263
23265
23267
23268
23273
23275
23277
23278
23282
23286
23290
23292
23297
23298
23302
23306
23310
23312
23313
23313
23317
23320
23322
23325
23325
23327
23333
23335
23338
23342
23345
23348
23349
23352
23354
23358
23360
23363
23365
23367
23372
23374
23378
23381
23384
23386
23392
23395
23398
23402
23404
23405
23409
23410
23411
23412
23413
23417
23418
23420
23421
23423
23429
23431
23433
23435
23435
23438
23440
23443
23446
23451
23451
23455
23457
23461
23464
23466
23470
23472
23473
23475
23481
23484
23490
23495
23496
23498
23500
23505
23505
23509
23510
23515
23518
23521
23524
23525
23528
23533
23537
23540
23541
23545
23548
23552
23553
23555
23561
23562
23567
23569
23571
23574
23577
23579
23580
23581
23585
23591
23596
23599
23602
23605
23607
23609
23610
23613
23613
23614
23617
23622
23624
23628
23634
23637
23643
23646
23650
23651
23656
23658
23662
23663
23667
23670
23671
23673
23675
23677
23679
23679
23683
23687
23689
23697
23700
23704
23708
23709
23713
23714
23716
23716
23718
23723
23726
23728
23730
23731
23734
23737
23739
23743
23746
23747
23748
23750
23751
23754
23758
23762
23763
23767
23771
23775
23775
23776
23777
23781
23782
23786
23788
23790
23794
23797
23802
23805
23807
23809
23811
23814
23814
23820
23820
23825
23827
23830
23832
23837
23840
23845
23846
23850
23853
23855
23856
23859
23860
23862
23865
23867
23872
23873
23876
23878
23882
23883
23888
23893
23897
23899
23900
23901
23907
23908
23912
23914
23919
23924
23924
23926
23930
23931
23933
23937
23941
23942
23943
23945
23947
23948
23952
23955
23960
23965
23967
23971
23975
23976
23978
23985
23988
23993
23997
24001
24007
24011
24013
24014
24017
24018
24022
24026
24031
24035
24037
24040
24046
24050
24053
24057
24058
24062
24064
24067
24071
24075
24078
24080
24083
24088
24090
24094
24097
24101
24105
24109
24111
24115
24116
24121
24126
24129
24134
24138
24141
24143
24147
24149
24153
24157
24159
24163
24163
24167
24172
24175
24175
24179
24184
24189
24191
24194
24197
24205
24208
24210
24214
24218
24222
24224
24227
24228
24233
24235
24239
24241
24245
24247
24252
24253
24258
24261
24266
24269
24272
24273
24275
24278
24278
24278
24282
24285
24289
24295
24297
24298
24302
24304
24306
24309
24312
24314
24317
24320
24323
24326
24331
24335
24336
24339
24341
24343
24347
24353
24357
24361
24365
24371
24375
24378
24385
24390
24394
24397
24400
24402
24404
24412
24415
24419
24422
24423
24426
24429
24433
24438
24439
24444
24447
24449
24455
24459
24462
24466
24470
24474
24475
24480
24484
24487
24493
24496
24499
24501
24503
24507
24513
24515
24519
24523
24527
24532
24534
24534
24537
24541
24542
24545
24547
24549
24552
24553
24555
24560
24562
24564
24568
24571
24573
24575
24576
24578
24580
24582
24583
24587
24593
24596
24598
24602
24604
24609
24612
24614
24618
24619
24621
24624
24630
24633
24639
24641
24643
24647
24651
24655
24656
24661
24665
24669
24675
24676
24679
24680
24682
24684
24687
24690
24693
24698
24699
24701
24702
24704
24704
24709
24710
24712
24715
24721
24722
24723
24723
24724
24727
24731
24733
24735
24736
24737
24741
24744
24746
24750
24753
24756
24762
24764
24771
24772
24776
24781
24785
24787
24792
24801
24804
24805
24807
24809
24813
24819
24823
24825
24829
24831
24833
24836
24841
24841
24844
24846
24849
24854
24858
24859
24865
24868
24870
24872
24872
24873
24875
24881
24884
24886
24890
24897
24899
24901
24903
24904
24907
24912
24916
24919
24923
24927
24932
24938
24943
24949
24953
24956
24962
24967
24971
24974
24975
24979
24980
24981
24984
24990
24990
24994
24997
24997
24999
25003
25005
25007
25010
25012
25017
25018
25023
25025
25027
25028
25030
25033
25038
25038
25041
25042
25048
25053
25056
25058
25061
25063
25063
25067
25071
25076
25081
25083
25083
25084
25085
25087
25088
25092
25093
25095
25101
25103
25107
25109
25113
25116
25119
25120
25125
25127
25130
25135
25139
25142
25148
25150
25155
25158
25159
25160
25165
25167
25171
25179
25185
25187
25191
25194
25195
25196
25199
25204
25208
25212
25217
25219
25223
25226
25228
25230
25237
25244
25247
25249
25252
25255
25258
25259
25262
25263
25266
25267
25270
25274
25277
25278
25281
25284
25287
25287
25289
25292
25294
25297
25301
25307
25310
25313
25313
25315
25316
25317
25317
25322
25323
25327
25331
25333
25337
25339
25340
25346
25349
25353
25357
25362
25367
25367
25372
25374
25379
25379
25380
25382
25384
25384
25387
25387
25390
25392
25393
25396
25397
25401
25402
25403
25407
25408
25415
25420
25424
25426
25428
25431
25436
25439
25442
25442
25445
25446
25448
25450
25450
25457
25461
25464
25466
25469
25473
25477
25479
25480
25483
25489
25490
25493
25499
25504
25510
25514
25518
25521
25524
25527
25529
25530
25533
25535
25538
25539
25541
25547
25551
25553
25556
25560
25564
25565
25568
25572
25575
25580
25583
25587
25592
25594
25596
25599
25604
25607
25609
25613
25616
25621
25623
25627
25628
25631
25638
25642
25645
25646
25648
25653
25657
25660
25664
25666
25670
25671
25671
25674
25675
25675
25677
25680
25683
25684
25685
25686
25688
25690
25691
25694
25696
25697
25701
25702
25706
25707
25708
25712
25714
25717
25719
25721
25728
25730
25731
25736
25739
25741
25746
25747
25750
25754
25756
25762
25765
25765
25769
25772
25776
25778
25778
25782
25783
25786
25792
25795
25798
25803
25806
25810
25815
25818
25821
25824
25829
25833
25836
25841
25845
25846
25846
25851
25853
25856
25858
25862
25863
25867
25871
25874
25878
25880
25883
25888
25889
25892
25894
25898
25904
25907
25910
25916
25921
25926
25933
25936
25936
25939
25941
25943
25947
25949
25951
25953
25958
25963
25965
25967
25972
25974
25978
25980
25982
25987
25992
25992
25994
25997
26002
26007
26009
26013
26015
26018
26019
26023
26026
26030
26033
26034
26036
26037
26043
26044
26046
26048
26049
26052
26055
26062
26066
26066
26069
26074
26077
26079
26085
26091
26092
26096
26100
26104
26105
26107
26109
26111
26112
26120
26122
26124
26128
26131
26136
26137
26138
26143
26149
26150
26153
26155
26160
26162
26164
26169
26173
26176
26183
26186
26186
26187
26188
26189
26195
26197
26202
26207
26210
26211
26213
26216
26216
26221
26223
26227
26230
26233
26234
26239
26242
26243
26246
26247
26250
26253
26255
26258
26262
26263
26269
26272
26274
26277
26278
26280
26281
26282
26285
26286
26291
26293
26298
26300
26305
26311
26314
26316
26319
26321
26321
26323
26328
26330
26334
26338
26341
26344
26346
26347
26349
26353
26358
26364
26367
26370
26372
26372
26372
26374
26375
26377
26380
26382
26385
26391
26396
26398
26399
26405
26410
26415
26417
26422
26425
26428
26431
26431
26433
26437
26437
26441
26444
26447
26451
26454
26457
26458
26458
26460
26464
26468
26471
26472
26474
26475
26476
26482
26484
26486
26488
26492
26495
26499
26505
26507
26510
26513
26516
26517
26521
26526
26528
26536
26537
26539
26540
26542
26548
26548
26553
26553
26555
26557
26559
26565
26567
26573
26575
26579
26581
26584
26585
26586
26587
26592
26595
26601
26607
26611
26611
26616
26616
26618
26621
26622
26626
26630
26633
26637
26640
26644
26647
26647
26649
26655
26661
26662
26665
26667
26672
26674
26678
26678
26685
26690
26690
26694
26696
26698
26700
26704
26704
26708
26709
26716
26718
26719
26719
26722
26723
26725
26728
26731
26734
26737
26740
26742
26747
26750
26753
26755
26760
26763
26763
26765
26768
26770
26773
26779
26781
26782
26783
26783
26785
26785
26788
26793
26796
26799
26804
26805
26810
26811
26817
26820
26822
26826
26832
26837
26838
26838
26839
26842
26847
26852
26855
26861
26865
26868
26870
26872
26874
26880
26881
26884
26888
26893
26893
26896
26900
26901
26903
26906
26908
26911
26911
26913
26916
26924
26927
26927
26935
26935
26936
26938
26942
26944
26950
26951
26954
26956
26960
26962
26963
26970
26972
26976
26980
26980
26981
26985
26988
26990
26992
26997
26998
27003
27007
27009
27012
27016
27017
27018
27019
27020
27024
27025
27031
27036
27038
27042
27044
27048
27049
27051
27053
27055
27058
27062
27066
27068
27070
27076
27077
27079
27081
27085
27087
27091
27096
27096
27100
27101
27106
27109
27110
27114
27115
27121
27123
27127
27131
27134
27135
27137
27142
27144
27150
27157
27159
27162
27165
27169
27172
27175
27181
27186
27189
27192
27194
27199
27203
27208
27211
27213
27216
27219
27224
27225
27226
27227
27232
27235
27240
27242
27245
27248
27251
27257
27260
27263
27266
27268
27273
27275
27278
27280
27283
27286
27290
27292
27295
27297
27301
27303
27304
27306
27313
27316
27317
27319
27320
27324
27329
27332
27333
27334
27338
27340
27343
27344
27347
27350
27353
27356
27356
27359
27365
27370
27374
27376
27380
27381
27382
27385
27387
27390
27391
27391
27392
27395
27399
27405
27408
27415
27418
27420
27426
27429
27434
27435
27436
27442
27445
27448
27449
27453
27456
27456
27458
27462
27464
27465
27468
27472
27473
27475
27477
27479
27483
27485
27486
27488
27490
27492
27495
27497
27498
27501
27505
27508
27513
27516
27519
27523
27526
27527
27529
27533
27536
27537
27539
27544
27545
27549
27550
27552
27559
27562
27566
27571
27573
27576
27580
27584
27585
27586
27591
27594
27597
27598
27601
27606
27610
27615
27618
27619
27623
27626
27629
27631
27635
27639
27640
27644
27648
27650
27651
27653
27654
27654
27658
27660
27663
27667
27667
27668
27669
27671
27674
27676
27679
27684
27687
27690
27694
27700
27700
27703
27704
27705
27707
27709
27711
27716
27717
27722
27725
27730
27732
27737
27741
27743
27748
27752
27753
27756
27759
27762
27762
27765
27769
27770
27771
27772
27775
27777
27778
27781
27786
27790
27792
27795
27799
27801
27802
27804
27807
27808
27810
27814
27817
27821
27824
27829
27831
27832
27837
27839
27841
27843
27845
27851
27852
27854
27858
27860
27860
27863
27866
27867
27868
27869
27871
27877
27881
27884
27889
27893
27895
27897
27901
27903
27909
27912
27914
27916
27919
27923
27925
27932
27936
27938
27941
27941
27943
27948
27953
27954
27957
27958
27963
27967
27970
27974
27979
27983
27986
27990
27993
27996
27998
28000
28006
28007
28010
28016
28020
28021
28028
28028
28028
28031
28034
28037
28042
28047
28052
28055
28057
28060
28063
28066
28069
28073
28074
28075
28079
28081
28089
28093
28096
28099
28107
28108
28108
28110
28111
28112
28113
28118
28121
28125
28129
28132
28135
28138
28142
28146
28149
28154
28156
28160
28166
28171
28172
28177
28180
28181
28184
28189
28193
28197
28199
28202
28202
28203
28206
28207
28210
28213
28221
28223
28224
28227
28228
28230
28232
28233
28237
28241
28245
28248
28251
28255
28262
28267
28270
28275
28276
28280
28280
28281
28282
28285
28292
28298
28302
28305
28307
28309
28313
28314
28318
28322
28326
28329
28330
28334
28341
28344
28348
28351
28355
28356
28360
28365
28368
28370
28372
28376
28377
28378
28378
28381
28385
28388
28391
28395
28397
28401
28404
28406
28407
28410
28416
28418
28421
28422
28426
28431
28437
28441
28444
28449
28454
28455
28457
28461
28464
28465
28473
28475
28476
28482
28486
28491
28495
28498
28502
28504
28505
28509
28515
28520
28524
28525
28527
28528
28532
28537
28540
28546
28548
28554
28557
28557
28559
28566
28569
28572
28576
28580
28584
28588
28592
28597
28601
28603
28604
28611
28615
28616
28621
28623
28627
28632
28636
28638
28639
28640
28641
28643
28644
28647
28650
28653
28655
28658
28663
28669
28672
28675
28678
28682
28685
28688
28696
28699
28702
28709
28711
28711
28712
28714
28718
28724
28725
28730
28735
28741
28744
28746
28750
28753
28753
28753
28753
28755
28756
28761
28764
28769
28771
28773
28777
28780
28782
28783
28787
28791
28793
28796
28799
28801
28802
28802
28806
28812
28813
28816
28819
28822
28826
28832
28835
28836
28837
28840
28842
28844
28850
28851
28855
28858
28860
28863
28866
28868
28872
28874
28877
28883
28886
28888
28889
28891
28892
28895
28895
28897
28899
28901
28904
28907
28909
28913
28917
28921
28924
28927
28929
28932
28933
28936
28938
28942
28948
28954
28958
28963
28966
28968
28970
28974
28978
28981
28982
28983
28984
28987
28989
28994
28998
29000
29002
29007
29012
29013
29018
29019
29027
29030
29035
29036
29038
29043
29045
29048
29051
29052
29057
29061
29062
29067
29068
29072
29073
29077
29080
29082
29083
29083
29084
29089
29090
29094
29095
29097
29099
29099
29105
29107
29110
29113
29116
29120
29125
29128
29128
29131
29135
29140
29144
29145
29146
29149
29152
29157
29161
29168
29170
29171
29172
29179
29181
29184
29188
29191
29198
29202
29205
29210
29212
29213
29214
29216
29218
29221
29224
29227
29229
29231
29234
29237
29246
29250
29255
29259
29261
29265
29265
29268
29273
29276
29282
29286
29288
29290
29293
29298
29302
29306
29307
29310
29311
29315
29322
29326
29329
29334
29334
29338
29343
29343
29346
29349
29353
29356
29360
29361
29362
29362
29366
29368
29369
29370
29372
29376
29379
29382
29387
29390
29392
29395
29398
29401
29403
29410
29412
29413
29418
29422
29422
29424
29426
29427
29428
29434
29439
29443
29448
29449
29454
29458
29462
29466
29469
29473
29475
29477
29479
29485
29487
29496
29501
29505
29507
29510
29512
29517
29518
29520
29523
29525
29529
29529
29535
29537
29541
29546
29549
29555
29557
29559
29562
29566
29570
29578
29582
29586
29586
29587
29592
29595
29596
29600
29607
29607
29609
29611
29613
29616
29617
29618
29621
29628
29633
29633
29638
29639
29644
29647
29649
29654
29659
29663
29665
29666
29667
29671
29673
29678
29682
29685
29688
29690
29693
29697
29699
29701
29704
29706
29710
29714
29717
29721
29723
29726
29728
29733
29739
29745
29749
29752
29757
29758
29760
29763
29766
29773
29774
29779
29782
29783
29785
29788
29793
29795
29801
29803
29806
29807
29808
29810
29812
29814
29819
29820
29823
29823
29826
29829
29833
29835
29836
29841
29848
29848
29853
29859
29866
29868
29871
29872
29873
29877
29880
29882
29883
29890
29891
29895
29897
29900
29902
29906
29911
29915
29919
29921
29925
29928
29928
29929
